lab2/simulation/qsim/Lab2.msim.vcd
$comment
	File created using the following command:
		vcd file Lab2.msim.vcd -direction
$end
$date
	Mon Feb 27 16:23:03 2023
$end
$version
	ModelSim Version 10.5b
$end
$timescale
	1ps
$end

$scope module lab2_vhd_vec_tst $end
$var wire 1 ! CLOCK $end
$var wire 1 " DIN0 $end
$var wire 1 # DIN1 $end
$var wire 1 $ FETCH $end
$var wire 1 % LDSBR $end
$var wire 1 & Q00 $end
$var wire 1 ' Q01 $end
$var wire 1 ( Q02 $end
$var wire 1 ) Q03 $end
$var wire 1 * Q10 $end
$var wire 1 + Q11 $end
$var wire 1 , Q12 $end
$var wire 1 - Q13 $end
$var wire 1 . SAR0 $end
$var wire 1 / SAR1 $end
$var wire 1 0 SBR0 $end
$var wire 1 1 SBR1 $end
$var wire 1 2 STORE $end

$scope module i1 $end
$var wire 1 3 gnd $end
$var wire 1 4 vcc $end
$var wire 1 5 unknown $end
$var wire 1 6 devoe $end
$var wire 1 7 devclrn $end
$var wire 1 8 devpor $end
$var wire 1 9 ww_devoe $end
$var wire 1 : ww_devclrn $end
$var wire 1 ; ww_devpor $end
$var wire 1 < ww_SBR1 $end
$var wire 1 = ww_DIN0 $end
$var wire 1 > ww_CLOCK $end
$var wire 1 ? ww_SAR1 $end
$var wire 1 @ ww_SAR0 $end
$var wire 1 A ww_STORE $end
$var wire 1 B ww_FETCH $end
$var wire 1 C ww_LDSBR $end
$var wire 1 D ww_DIN1 $end
$var wire 1 E ww_SBR0 $end
$var wire 1 F ww_Q00 $end
$var wire 1 G ww_Q01 $end
$var wire 1 H ww_Q02 $end
$var wire 1 I ww_Q03 $end
$var wire 1 J ww_Q10 $end
$var wire 1 K ww_Q11 $end
$var wire 1 L ww_Q12 $end
$var wire 1 M ww_Q13 $end
$var wire 1 N \CLOCK~inputclkctrl_INCLK_bus\ [3] $end
$var wire 1 O \CLOCK~inputclkctrl_INCLK_bus\ [2] $end
$var wire 1 P \CLOCK~inputclkctrl_INCLK_bus\ [1] $end
$var wire 1 Q \CLOCK~inputclkctrl_INCLK_bus\ [0] $end
$var wire 1 R \SBR1~output_o\ $end
$var wire 1 S \SBR0~output_o\ $end
$var wire 1 T \Q00~output_o\ $end
$var wire 1 U \Q01~output_o\ $end
$var wire 1 V \Q02~output_o\ $end
$var wire 1 W \Q03~output_o\ $end
$var wire 1 X \Q10~output_o\ $end
$var wire 1 Y \Q11~output_o\ $end
$var wire 1 Z \Q12~output_o\ $end
$var wire 1 [ \Q13~output_o\ $end
$var wire 1 \ \CLOCK~input_o\ $end
$var wire 1 ] \CLOCK~inputclkctrl_outclk\ $end
$var wire 1 ^ \LDSBR~input_o\ $end
$var wire 1 _ \SAR1~input_o\ $end
$var wire 1 ` \SAR0~input_o\ $end
$var wire 1 a \STORE~input_o\ $end
$var wire 1 b \inst3|15~0_combout\ $end
$var wire 1 c \inst3|15~q\ $end
$var wire 1 d \inst8~0_combout\ $end
$var wire 1 e \inst5|23~0_combout\ $end
$var wire 1 f \inst2|41~q\ $end
$var wire 1 g \inst2|40~q\ $end
$var wire 1 h \inst2|39~feeder_combout\ $end
$var wire 1 i \inst2|39~q\ $end
$var wire 1 j \inst2|38~q\ $end
$var wire 1 k \DIN1~input_o\ $end
$var wire 1 l \inst4|10~0_combout\ $end
$var wire 1 m \FETCH~input_o\ $end
$var wire 1 n \inst14~0_combout\ $end
$var wire 1 o \inst4|10~1_combout\ $end
$var wire 1 p \inst6|10~q\ $end
$var wire 1 q \inst5|22~0_combout\ $end
$var wire 1 r \inst|41~q\ $end
$var wire 1 s \inst|40~feeder_combout\ $end
$var wire 1 t \inst|40~q\ $end
$var wire 1 u \inst|39~feeder_combout\ $end
$var wire 1 v \inst|39~q\ $end
$var wire 1 w \inst|38~feeder_combout\ $end
$var wire 1 x \inst|38~q\ $end
$var wire 1 y \DIN0~input_o\ $end
$var wire 1 z \inst4|9~0_combout\ $end
$var wire 1 { \inst4|9~1_combout\ $end
$var wire 1 | \inst6|9~q\ $end
$var wire 1 } \ALT_INV_CLOCK~inputclkctrl_outclk\ $end
$upscope $end
$upscope $end
$enddefinitions $end
#0
$dumpvars
1!
0"
1#
0$
1%
0&
0'
0(
0)
0*
0+
0,
0-
0.
0/
00
01
02
03
14
x5
16
17
18
19
1:
1;
0<
0=
1>
0?
0@
0A
0B
1C
1D
0E
0F
0G
0H
0I
0J
0K
0L
0M
0R
0S
0T
0U
0V
0W
0X
0Y
0Z
0[
1\
1]
1^
0_
0`
0a
1b
0c
0d
0e
0f
0g
0h
0i
0j
1k
1l
0m
0n
1o
0p
0q
0r
0s
0t
0u
0v
0w
0x
0y
0z
0{
0|
0}
1N
1O
1P
1Q
$end
#5000
0!
0>
0\
0Q
0]
1}
1c
0b
#10000
1!
1>
1\
1Q
1]
0}
1p
1R
1<
11
#15000
0!
0>
0\
0Q
0]
1}
0c
1b
#20000
1!
1>
1\
1Q
1]
0}
#25000
0!
0>
0\
0Q
0]
1}
1c
0b
#30000
1!
0%
1>
0C
0^
1\
1Q
1]
0}
#35000
0!
0>
0\
0Q
0]
1}
0c
1b
#40000
1!
1%
0#
1>
1C
0D
0k
1^
1\
1Q
0l
0o
1]
0}
0p
0R
0<
01
#45000
0!
0>
0\
0Q
0]
1}
1c
0b
#50000
1!
1>
1\
1Q
1]
0}
#55000
0!
0>
0\
0Q
0]
1}
0c
1b
#60000
1!
1>
1\
1Q
1]
0}
#65000
0!
0>
0\
0Q
0]
1}
1c
0b
#70000
1!
0%
1>
0C
0^
1\
1Q
1]
0}
#75000
0!
0>
0\
0Q
0]
1}
0c
1b
#80000
1!
1%
1"
1>
1C
1=
1y
1^
1\
1Q
1z
1{
1]
0}
1|
1S
1E
10
#85000
0!
0>
0\
0Q
0]
1}
1c
0b
#90000
1!
1>
1\
1Q
1]
0}
#95000
0!
0>
0\
0Q
0]
1}
0c
1b
#100000
1!
1>
1\
1Q
1]
0}
#105000
0!
0>
0\
0Q
0]
1}
1c
0b
#110000
1!
0%
1>
0C
0^
1\
1Q
1]
0}
#115000
0!
0>
0\
0Q
0]
1}
0c
1b
#120000
1!
1%
1#
1>
1C
1D
1k
1^
1\
1Q
1l
1o
1]
0}
1p
1R
1<
11
#125000
0!
0>
0\
0Q
0]
1}
1c
0b
#130000
1!
1>
1\
1Q
1]
0}
#135000
0!
0>
0\
0Q
0]
1}
0c
1b
#140000
1!
1>
1\
1Q
1]
0}
#145000
0!
0>
0\
0Q
0]
1}
1c
0b
#150000
1!
0%
1>
0C
0^
1\
1Q
1]
0}
#155000
0!
0>
0\
0Q
0]
1}
0c
1b
#160000
1!
0#
0"
1>
0D
0=
0y
0k
1\
1Q
1]
0}
#165000
0!
0>
0\
0Q
0]
1}
1c
0b
#170000
1!
1>
1\
1Q
1]
0}
#175000
0!
0>
0\
0Q
0]
1}
0c
1b
#180000
1!
1>
1\
1Q
1]
0}
#185000
0!
0>
0\
0Q
0]
1}
1c
0b
#190000
1!
1.
1/
1>
1@
1?
1_
1`
1\
1Q
1]
0}
#195000
0!
0>
0\
0Q
0]
1}
0c
1b
#200000
1!
12
1>
1A
1a
1\
1Q
1]
0}
#205000
0!
0>
0\
0Q
0]
1}
1c
0b
1d
1e
1q
#210000
1!
1>
1\
1Q
1]
0}
1f
1r
1s
1W
1[
1I
1M
1)
1-
#215000
0!
0>
0\
0Q
0]
1}
0c
1b
0d
0e
0q
#220000
1!
1>
1\
1Q
1]
0}
0f
1g
0r
1t
1u
0s
1h
1V
0W
1Z
0[
1H
0I
1L
0M
1(
0)
1,
0-
#225000
0!
0>
0\
0Q
0]
1}
1c
0b
1d
1e
1q
#230000
1!
1>
1\
1Q
1]
0}
1f
0g
1i
1r
0t
1v
1w
0u
1s
0h
1U
0V
1W
1Y
0Z
1[
1G
0H
1I
1K
0L
1M
1'
0(
1)
1+
0,
1-
#235000
0!
0>
0\
0Q
0]
1}
0c
1b
0d
0e
0q
#240000
1!
02
1>
0A
0a
1\
1Q
1]
0}
0f
1g
0i
1j
0r
1t
0v
1x
1q
0w
1u
0s
1e
1h
1T
0U
1V
0W
1X
0Y
1Z
0[
1F
0G
1H
0I
1J
0K
1L
0M
1&
0'
1(
0)
1*
0+
1,
0-
#245000
0!
0>
0\
0Q
0]
1}
1c
0b
#250000
1!
1"
1%
1>
1=
1C
1^
1y
1\
1Q
0l
0o
1]
0}
1f
0g
1i
0j
0p
1r
0t
1v
0x
0q
1w
0u
1s
0e
0h
0T
1U
0V
1W
0R
0X
1Y
0Z
1[
0F
1G
0H
1I
0<
0J
1K
0L
1M
0&
1'
0(
1)
01
0*
1+
0,
1-
#255000
0!
0>
0\
0Q
0]
1}
0c
1b
#260000
1!
1>
1\
1Q
1]
0}
0f
1g
0i
1j
0r
1t
0v
1x
1q
0w
1u
0s
1e
1h
1T
0U
1V
0W
1X
0Y
1Z
0[
1F
0G
1H
0I
1J
0K
1L
0M
1&
0'
1(
0)
1*
0+
1,
0-
#265000
0!
0>
0\
0Q
0]
1}
1c
0b
#270000
1!
1>
1\
1Q
1]
0}
1f
0g
1i
0j
1r
0t
1v
0x
0q
1w
0u
1s
0e
0h
0T
1U
0V
1W
0X
1Y
0Z
1[
0F
1G
0H
1I
0J
1K
0L
1M
0&
1'
0(
1)
0*
1+
0,
1-
#275000
0!
0>
0\
0Q
0]
1}
0c
1b
#280000
1!
0%
0/
1>
0C
0?
0_
0^
1\
1Q
1]
0}
0f
1g
0i
1j
0r
1t
0v
1x
1q
0w
1u
0s
1e
1h
1T
0U
1V
0W
1X
0Y
1Z
0[
1F
0G
1H
0I
1J
0K
1L
0M
1&
0'
1(
0)
1*
0+
1,
0-
#285000
0!
0>
0\
0Q
0]
1}
1c
0b
#290000
1!
0"
12
1>
0=
1A
1a
0y
1\
1Q
1]
0}
1f
0g
1i
0j
1r
0t
1v
0x
0q
1w
0u
1s
0e
0h
0T
1U
0V
1W
0X
1Y
0Z
1[
0F
1G
0H
1I
0J
1K
0L
1M
0&
1'
0(
1)
0*
1+
0,
1-
#295000
0!
0>
0\
0Q
0]
1}
0c
1b
#300000
1!
1>
1\
1Q
1]
0}
0f
1g
0i
1j
0r
1t
0v
1x
1q
0w
1u
0s
1e
1h
1T
0U
1V
0W
1X
0Y
1Z
0[
1F
0G
1H
0I
1J
0K
1L
0M
1&
0'
1(
0)
1*
0+
1,
0-
#305000
0!
0>
0\
0Q
0]
1}
1c
0b
#310000
1!
1>
1\
1Q
1]
0}
1f
0g
1i
0j
1r
0t
1v
0x
0q
1w
0u
1s
0e
0h
0T
1U
0V
1W
0X
1Y
0Z
1[
0F
1G
0H
1I
0J
1K
0L
1M
0&
1'
0(
1)
0*
1+
0,
1-
#315000
0!
0>
0\
0Q
0]
1}
0c
1b
#320000
1!
1>
1\
1Q
1]
0}
0f
1g
0i
1j
0r
1t
0v
1x
1q
0w
1u
0s
1e
1h
1T
0U
1V
0W
1X
0Y
1Z
0[
1F
0G
1H
0I
1J
0K
1L
0M
1&
0'
1(
0)
1*
0+
1,
0-
#325000
0!
0>
0\
0Q
0]
1}
1c
0b
#330000
1!
02
1>
0A
0a
1\
1Q
1]
0}
1f
0g
1i
0j
1r
0t
1v
0x
0q
1w
0u
1s
0e
0h
0T
1U
0V
1W
0X
1Y
0Z
1[
0F
1G
0H
1I
0J
1K
0L
1M
0&
1'
0(
1)
0*
1+
0,
1-
#335000
0!
0>
0\
0Q
0]
1}
0c
1b
#340000
1!
1%
1>
1C
1^
1\
1Q
0z
0{
1]
0}
0f
1g
0i
1j
0r
1t
0v
1x
0|
1q
0w
1u
0s
1e
1h
0S
1T
0U
1V
0W
1X
0Y
1Z
0[
0E
1F
0G
1H
0I
1J
0K
1L
0M
00
1&
0'
1(
0)
1*
0+
1,
0-
#345000
0!
0>
0\
0Q
0]
1}
1c
0b
#350000
1!
1>
1\
1Q
1]
0}
1f
0g
1i
0j
1r
0t
1v
0x
0q
1w
0u
1s
0e
0h
0T
1U
0V
1W
0X
1Y
0Z
1[
0F
1G
0H
1I
0J
1K
0L
1M
0&
1'
0(
1)
0*
1+
0,
1-
#355000
0!
0>
0\
0Q
0]
1}
0c
1b
#360000
1!
1>
1\
1Q
1]
0}
0f
1g
0i
1j
0r
1t
0v
1x
1q
0w
1u
0s
1e
1h
1T
0U
1V
0W
1X
0Y
1Z
0[
1F
0G
1H
0I
1J
0K
1L
0M
1&
0'
1(
0)
1*
0+
1,
0-
#365000
0!
0>
0\
0Q
0]
1}
1c
0b
#370000
1!
0%
0.
1>
0C
0@
0`
0^
1\
1Q
1]
0}
1f
0g
1i
0j
1r
0t
1v
0x
0q
1w
0u
1s
0e
0h
0T
1U
0V
1W
0X
1Y
0Z
1[
0F
1G
0H
1I
0J
1K
0L
1M
0&
1'
0(
1)
0*
1+
0,
1-
#375000
0!
0>
0\
0Q
0]
1}
0c
1b
#380000
1!
12
1>
1A
1a
1\
1Q
1d
1]
0}
0f
1g
0i
1j
0r
1t
0v
1x
0w
1u
0s
1h
1T
0U
1V
0W
1X
0Y
1Z
0[
1F
0G
1H
0I
1J
0K
1L
0M
1&
0'
1(
0)
1*
0+
1,
0-
#385000
0!
0>
0\
0Q
0]
1}
1c
0b
0d
1e
1q
#390000
1!
1>
1\
1Q
1]
0}
1f
0g
1i
0j
1r
0t
1v
0x
0q
1w
0u
1s
0e
0h
0T
1U
0V
1W
0X
1Y
0Z
1[
0F
1G
0H
1I
0J
1K
0L
1M
0&
1'
0(
1)
0*
1+
0,
1-
#395000
0!
0>
0\
0Q
0]
1}
0c
1b
1d
#400000
1!
1>
1\
1Q
1]
0}
0f
1g
0i
1j
0r
1t
0v
1x
0w
1u
0s
1h
1T
0U
1V
0W
1X
0Y
1Z
0[
1F
0G
1H
0I
1J
0K
1L
0M
1&
0'
1(
0)
1*
0+
1,
0-
#405000
0!
0>
0\
0Q
0]
1}
1c
0b
0d
1e
1q
#410000
1!
1>
1\
1Q
1]
0}
1f
0g
1i
0j
1r
0t
1v
0x
0q
1w
0u
1s
0e
0h
0T
1U
0V
1W
0X
1Y
0Z
1[
0F
1G
0H
1I
0J
1K
0L
1M
0&
1'
0(
1)
0*
1+
0,
1-
#415000
0!
0>
0\
0Q
0]
1}
0c
1b
1d
#420000
1!
02
1>
0A
0a
1\
1Q
0d
1]
0}
0f
1g
0i
1j
0r
1t
0v
1x
1q
0w
1u
0s
1e
1h
1T
0U
1V
0W
1X
0Y
1Z
0[
1F
0G
1H
0I
1J
0K
1L
0M
1&
0'
1(
0)
1*
0+
1,
0-
#425000
0!
0>
0\
0Q
0]
1}
1c
0b
#430000
1!
1%
1#
1>
1C
1D
1k
1^
1\
1Q
1l
1o
1]
0}
1f
0g
1i
0j
1p
1r
0t
1v
0x
0q
1w
0u
1s
0e
0h
0T
1U
0V
1W
1R
0X
1Y
0Z
1[
0F
1G
0H
1I
1<
0J
1K
0L
1M
0&
1'
0(
1)
11
0*
1+
0,
1-
#435000
0!
0>
0\
0Q
0]
1}
0c
1b
#440000
1!
1>
1\
1Q
1]
0}
0f
1g
0i
1j
0r
1t
0v
1x
1q
0w
1u
0s
1e
1h
1T
0U
1V
0W
1X
0Y
1Z
0[
1F
0G
1H
0I
1J
0K
1L
0M
1&
0'
1(
0)
1*
0+
1,
0-
#445000
0!
0>
0\
0Q
0]
1}
1c
0b
#450000
1!
1>
1\
1Q
1]
0}
1f
0g
1i
0j
1r
0t
1v
0x
0q
1w
0u
1s
0e
0h
0T
1U
0V
1W
0X
1Y
0Z
1[
0F
1G
0H
1I
0J
1K
0L
1M
0&
1'
0(
1)
0*
1+
0,
1-
#455000
0!
0>
0\
0Q
0]
1}
0c
1b
#460000
1!
0%
1/
1>
0C
1?
1_
0^
1\
1Q
1]
0}
0f
1g
0i
1j
0r
1t
0v
1x
1q
0w
1u
0s
1e
1h
1T
0U
1V
0W
1X
0Y
1Z
0[
1F
0G
1H
0I
1J
0K
1L
0M
1&
0'
1(
0)
1*
0+
1,
0-
#465000
0!
0>
0\
0Q
0]
1}
1c
0b
#470000
1!
0#
12
1>
0D
1A
1a
0k
1\
1Q
1]
0}
1f
0g
1i
0j
1r
0t
1v
0x
0q
1w
0u
1s
0e
0h
0T
1U
0V
1W
0X
1Y
0Z
1[
0F
1G
0H
1I
0J
1K
0L
1M
0&
1'
0(
1)
0*
1+
0,
1-
#475000
0!
0>
0\
0Q
0]
1}
0c
1b
#480000
1!
1>
1\
1Q
1]
0}
0f
1g
0i
1j
0r
1t
0v
1x
1q
0w
1u
0s
1e
1h
1T
0U
1V
0W
1X
0Y
1Z
0[
1F
0G
1H
0I
1J
0K
1L
0M
1&
0'
1(
0)
1*
0+
1,
0-
#485000
0!
0>
0\
0Q
0]
1}
1c
0b
#490000
1!
1>
1\
1Q
1]
0}
1f
0g
1i
0j
1r
0t
1v
0x
0q
1w
0u
1s
0e
0h
0T
1U
0V
1W
0X
1Y
0Z
1[
0F
1G
0H
1I
0J
1K
0L
1M
0&
1'
0(
1)
0*
1+
0,
1-
#495000
0!
0>
0\
0Q
0]
1}
0c
1b
#500000
1!
1>
1\
1Q
1]
0}
0f
1g
0i
1j
0r
1t
0v
1x
1q
0w
1u
0s
1e
1h
1T
0U
1V
0W
1X
0Y
1Z
0[
1F
0G
1H
0I
1J
0K
1L
0M
1&
0'
1(
0)
1*
0+
1,
0-
#505000
0!
0>
0\
0Q
0]
1}
1c
0b
#510000
1!
02
1>
0A
0a
1\
1Q
1]
0}
1f
0g
1i
0j
1r
0t
1v
0x
0q
1w
0u
1s
0e
0h
0T
1U
0V
1W
0X
1Y
0Z
1[
0F
1G
0H
1I
0J
1K
0L
1M
0&
1'
0(
1)
0*
1+
0,
1-
#515000
0!
0>
0\
0Q
0]
1}
0c
1b
#520000
1!
1>
1\
1Q
1]
0}
0f
1g
0i
1j
0r
1t
0v
1x
1q
0w
1u
0s
1e
1h
1T
0U
1V
0W
1X
0Y
1Z
0[
1F
0G
1H
0I
1J
0K
1L
0M
1&
0'
1(
0)
1*
0+
1,
0-
#525000
0!
0>
0\
0Q
0]
1}
1c
0b
#530000
1!
1>
1\
1Q
1]
0}
1f
0g
1i
0j
1r
0t
1v
0x
0q
1w
0u
1s
0e
0h
0T
1U
0V
1W
0X
1Y
0Z
1[
0F
1G
0H
1I
0J
1K
0L
1M
0&
1'
0(
1)
0*
1+
0,
1-
#535000
0!
0>
0\
0Q
0]
1}
0c
1b
#540000
1!
1>
1\
1Q
1]
0}
0f
1g
0i
1j
0r
1t
0v
1x
1q
0w
1u
0s
1e
1h
1T
0U
1V
0W
1X
0Y
1Z
0[
1F
0G
1H
0I
1J
0K
1L
0M
1&
0'
1(
0)
1*
0+
1,
0-
#545000
0!
0>
0\
0Q
0]
1}
1c
0b
#550000
1!
0/
1>
0?
0_
1\
1Q
1]
0}
1f
0g
1i
0j
1r
0t
1v
0x
0q
1w
0u
1s
0e
0h
0T
1U
0V
1W
0X
1Y
0Z
1[
0F
1G
0H
1I
0J
1K
0L
1M
0&
1'
0(
1)
0*
1+
0,
1-
#555000
0!
0>
0\
0Q
0]
1}
0c
1b
#560000
1!
1>
1\
1Q
1]
0}
0f
1g
0i
1j
0r
1t
0v
1x
1q
0w
1u
0s
1e
1h
1T
0U
1V
0W
1X
0Y
1Z
0[
1F
0G
1H
0I
1J
0K
1L
0M
1&
0'
1(
0)
1*
0+
1,
0-
#565000
0!
0>
0\
0Q
0]
1}
1c
0b
#570000
1!
1>
1\
1Q
1]
0}
1f
0g
1i
0j
1r
0t
1v
0x
0q
1w
0u
1s
0e
0h
0T
1U
0V
1W
0X
1Y
0Z
1[
0F
1G
0H
1I
0J
1K
0L
1M
0&
1'
0(
1)
0*
1+
0,
1-
#575000
0!
0>
0\
0Q
0]
1}
0c
1b
#580000
1!
1>
1\
1Q
1]
0}
0f
1g
0i
1j
0r
1t
0v
1x
1q
0w
1u
0s
1e
1h
1T
0U
1V
0W
1X
0Y
1Z
0[
1F
0G
1H
0I
1J
0K
1L
0M
1&
0'
1(
0)
1*
0+
1,
0-
#585000
0!
0>
0\
0Q
0]
1}
1c
0b
#590000
1!
1>
1\
1Q
1]
0}
1f
0g
1i
0j
1r
0t
1v
0x
0q
1w
0u
1s
0e
0h
0T
1U
0V
1W
0X
1Y
0Z
1[
0F
1G
0H
1I
0J
1K
0L
1M
0&
1'
0(
1)
0*
1+
0,
1-
#595000
0!
0>
0\
0Q
0]
1}
0c
1b
#600000
1!
1>
1\
1Q
1]
0}
0f
1g
0i
1j
0r
1t
0v
1x
1q
0w
1u
0s
1e
1h
1T
0U
1V
0W
1X
0Y
1Z
0[
1F
0G
1H
0I
1J
0K
1L
0M
1&
0'
1(
0)
1*
0+
1,
0-
#605000
0!
0>
0\
0Q
0]
1}
1c
0b
#610000
1!
1>
1\
1Q
1]
0}
1f
0g
1i
0j
1r
0t
1v
0x
0q
1w
0u
1s
0e
0h
0T
1U
0V
1W
0X
1Y
0Z
1[
0F
1G
0H
1I
0J
1K
0L
1M
0&
1'
0(
1)
0*
1+
0,
1-
#615000
0!
0>
0\
0Q
0]
1}
0c
1b
#620000
1!
1>
1\
1Q
1]
0}
0f
1g
0i
1j
0r
1t
0v
1x
1q
0w
1u
0s
1e
1h
1T
0U
1V
0W
1X
0Y
1Z
0[
1F
0G
1H
0I
1J
0K
1L
0M
1&
0'
1(
0)
1*
0+
1,
0-
#625000
0!
0>
0\
0Q
0]
1}
1c
0b
#630000
1!
1/
1.
1>
1?
1@
1`
1_
1\
1Q
1]
0}
1f
0g
1i
0j
1r
0t
1v
0x
0q
1w
0u
1s
0e
0h
0T
1U
0V
1W
0X
1Y
0Z
1[
0F
1G
0H
1I
0J
1K
0L
1M
0&
1'
0(
1)
0*
1+
0,
1-
#635000
0!
0>
0\
0Q
0]
1}
0c
1b
#640000
1!
1$
1>
1B
1m
1\
1Q
1]
0}
0f
1g
0i
1j
0r
1t
0v
1x
1q
0w
1u
0s
1e
1h
1T
0U
1V
0W
1X
0Y
1Z
0[
1F
0G
1H
0I
1J
0K
1L
0M
1&
0'
1(
0)
1*
0+
1,
0-
#645000
0!
0>
0\
0Q
0]
1}
1c
0b
1n
1{
#650000
1!
1>
1\
1Q
1]
0}
1f
0g
1i
0j
1r
0t
1v
0x
1|
1z
0q
0{
1w
0u
1s
0e
0o
0h
1S
0T
1U
0V
1W
0X
1Y
0Z
1[
1E
0F
1G
0H
1I
0J
1K
0L
1M
10
0&
1'
0(
1)
0*
1+
0,
1-
#655000
0!
0>
0\
0Q
0]
1}
0c
1b
0n
1o
1{
#660000
1!
1>
1\
1Q
1]
0}
0f
1g
0i
1j
0r
1t
0v
1x
1q
0w
1u
0s
1e
1h
1T
0U
1V
0W
1X
0Y
1Z
0[
1F
0G
1H
0I
1J
0K
1L
0M
1&
0'
1(
0)
1*
0+
1,
0-
#665000
0!
0>
0\
0Q
0]
1}
1c
0b
1n
#670000
1!
1>
1\
1Q
1]
0}
1f
0g
1i
0j
1r
0t
1v
0x
0q
0{
1w
0u
1s
0e
0o
0h
0T
1U
0V
1W
0X
1Y
0Z
1[
0F
1G
0H
1I
0J
1K
0L
1M
0&
1'
0(
1)
0*
1+
0,
1-
#675000
0!
0>
0\
0Q
0]
1}
0c
1b
0n
1o
1{
#680000
1!
0$
0/
1>
0B
0?
0_
0m
1\
1Q
1]
0}
0f
1g
0i
1j
0r
1t
0v
1x
1q
0w
1u
0s
1e
1h
1T
0U
1V
0W
1X
0Y
1Z
0[
1F
0G
1H
0I
1J
0K
1L
0M
1&
0'
1(
0)
1*
0+
1,
0-
#685000
0!
0>
0\
0Q
0]
1}
1c
0b
#690000
1!
1$
1>
1B
1m
1\
1Q
1]
0}
1f
0g
1i
0j
1r
0t
1v
0x
0q
1w
0u
1s
0e
0h
0T
1U
0V
1W
0X
1Y
0Z
1[
0F
1G
0H
1I
0J
1K
0L
1M
0&
1'
0(
1)
0*
1+
0,
1-
#695000
0!
0>
0\
0Q
0]
1}
0c
1b
#700000
1!
1>
1\
1Q
1]
0}
0f
1g
0i
1j
0r
1t
0v
1x
1q
0w
1u
0s
1e
1h
1T
0U
1V
0W
1X
0Y
1Z
0[
1F
0G
1H
0I
1J
0K
1L
0M
1&
0'
1(
0)
1*
0+
1,
0-
#705000
0!
0>
0\
0Q
0]
1}
1c
0b
#710000
1!
1>
1\
1Q
1]
0}
1f
0g
1i
0j
1r
0t
1v
0x
0q
1w
0u
1s
0e
0h
0T
1U
0V
1W
0X
1Y
0Z
1[
0F
1G
0H
1I
0J
1K
0L
1M
0&
1'
0(
1)
0*
1+
0,
1-
#715000
0!
0>
0\
0Q
0]
1}
0c
1b
#720000
1!
1>
1\
1Q
1]
0}
0f
1g
0i
1j
0r
1t
0v
1x
1q
0w
1u
0s
1e
1h
1T
0U
1V
0W
1X
0Y
1Z
0[
1F
0G
1H
0I
1J
0K
1L
0M
1&
0'
1(
0)
1*
0+
1,
0-
#725000
0!
0>
0\
0Q
0]
1}
1c
0b
#730000
1!
0$
0.
1>
0B
0@
0`
0m
1\
1Q
1]
0}
1f
0g
1i
0j
1r
0t
1v
0x
0q
1w
0u
1s
0e
0h
0T
1U
0V
1W
0X
1Y
0Z
1[
0F
1G
0H
1I
0J
1K
0L
1M
0&
1'
0(
1)
0*
1+
0,
1-
#735000
0!
0>
0\
0Q
0]
1}
0c
1b
#740000
1!
1$
1>
1B
1m
1\
1Q
1n
0o
0{
1]
0}
0f
1g
0i
1j
0p
0r
1t
0v
1x
0|
0z
1q
1{
0w
1u
0s
0l
1e
1o
1h
0S
1T
0U
1V
0W
0R
1X
0Y
1Z
0[
0E
1F
0G
1H
0I
0<
1J
0K
1L
0M
00
1&
0'
1(
0)
01
1*
0+
1,
0-
#745000
0!
0>
0\
0Q
0]
1}
1c
0b
0n
0o
0{
#750000
1!
1>
1\
1Q
1]
0}
1f
0g
1i
0j
1r
0t
1v
0x
0q
1w
0u
1s
0e
0h
0T
1U
0V
1W
0X
1Y
0Z
1[
0F
1G
0H
1I
0J
1K
0L
1M
0&
1'
0(
1)
0*
1+
0,
1-
#755000
0!
0>
0\
0Q
0]
1}
0c
1b
1n
#760000
1!
1>
1\
1Q
1]
0}
0f
1g
0i
1j
0r
1t
0v
1x
1q
1{
0w
1u
0s
1e
1o
1h
1T
0U
1V
0W
1X
0Y
1Z
0[
1F
0G
1H
0I
1J
0K
1L
0M
1&
0'
1(
0)
1*
0+
1,
0-
#765000
0!
0>
0\
0Q
0]
1}
1c
0b
0n
0o
0{
#770000
1!
1>
1\
1Q
1]
0}
1f
0g
1i
0j
1r
0t
1v
0x
0q
1w
0u
1s
0e
0h
0T
1U
0V
1W
0X
1Y
0Z
1[
0F
1G
0H
1I
0J
1K
0L
1M
0&
1'
0(
1)
0*
1+
0,
1-
#775000
0!
0>
0\
0Q
0]
1}
0c
1b
1n
#780000
1!
0$
1/
1>
0B
1?
1_
0m
1\
1Q
0n
1]
0}
0f
1g
0i
1j
0r
1t
0v
1x
1q
0w
1u
0s
1e
1h
1T
0U
1V
0W
1X
0Y
1Z
0[
1F
0G
1H
0I
1J
0K
1L
0M
1&
0'
1(
0)
1*
0+
1,
0-
#785000
0!
0>
0\
0Q
0]
1}
1c
0b
#790000
1!
1$
1>
1B
1m
1\
1Q
1]
0}
1f
0g
1i
0j
1r
0t
1v
0x
0q
1w
0u
1s
0e
0h
0T
1U
0V
1W
0X
1Y
0Z
1[
0F
1G
0H
1I
0J
1K
0L
1M
0&
1'
0(
1)
0*
1+
0,
1-
#795000
0!
0>
0\
0Q
0]
1}
0c
1b
#800000
1!
1>
1\
1Q
1]
0}
0f
1g
0i
1j
0r
1t
0v
1x
1q
0w
1u
0s
1e
1h
1T
0U
1V
0W
1X
0Y
1Z
0[
1F
0G
1H
0I
1J
0K
1L
0M
1&
0'
1(
0)
1*
0+
1,
0-
#805000
0!
0>
0\
0Q
0]
1}
1c
0b
#810000
1!
1>
1\
1Q
1]
0}
1f
0g
1i
0j
1r
0t
1v
0x
0q
1w
0u
1s
0e
0h
0T
1U
0V
1W
0X
1Y
0Z
1[
0F
1G
0H
1I
0J
1K
0L
1M
0&
1'
0(
1)
0*
1+
0,
1-
#815000
0!
0>
0\
0Q
0]
1}
0c
1b
#820000
1!
1>
1\
1Q
1]
0}
0f
1g
0i
1j
0r
1t
0v
1x
1q
0w
1u
0s
1e
1h
1T
0U
1V
0W
1X
0Y
1Z
0[
1F
0G
1H
0I
1J
0K
1L
0M
1&
0'
1(
0)
1*
0+
1,
0-
#825000
0!
0>
0\
0Q
0]
1}
1c
0b
#830000
1!
0$
0/
1>
0B
0?
0_
0m
1\
1Q
1]
0}
1f
0g
1i
0j
1r
0t
1v
0x
0q
1w
0u
1s
0e
0h
0T
1U
0V
1W
0X
1Y
0Z
1[
0F
1G
0H
1I
0J
1K
0L
1M
0&
1'
0(
1)
0*
1+
0,
1-
#835000
0!
0>
0\
0Q
0]
1}
0c
1b
#840000
1!
1>
1\
1Q
1]
0}
0f
1g
0i
1j
0r
1t
0v
1x
1q
0w
1u
0s
1e
1h
1T
0U
1V
0W
1X
0Y
1Z
0[
1F
0G
1H
0I
1J
0K
1L
0M
1&
0'
1(
0)
1*
0+
1,
0-
#845000
0!
0>
0\
0Q
0]
1}
1c
0b
#850000
1!
1>
1\
1Q
1]
0}
1f
0g
1i
0j
1r
0t
1v
0x
0q
1w
0u
1s
0e
0h
0T
1U
0V
1W
0X
1Y
0Z
1[
0F
1G
0H
1I
0J
1K
0L
1M
0&
1'
0(
1)
0*
1+
0,
1-
#855000
0!
0>
0\
0Q
0]
1}
0c
1b
