lab3/simulation/qsim/lab3.msim.vcd
$comment
	File created using the following command:
		vcd file lab3.msim.vcd -direction
$end
$date
	Mon Feb 27 22:15:23 2023
$end
$version
	ModelSim Version 10.5b
$end
$timescale
	1ps
$end

$scope module lab3_vhd_vec_tst $end
$var wire 1 ! CLK $end
$var wire 1 " D0 $end
$var wire 1 # D1 $end
$var wire 1 $ D2 $end
$var wire 1 % D3 $end
$var wire 1 & EXECUTE $end
$var wire 1 ' F0 $end
$var wire 1 ( F1 $end
$var wire 1 ) F2 $end
$var wire 1 * LOAD_A $end
$var wire 1 + LOAD_B $end
$var wire 1 , R0 $end
$var wire 1 - R1 $end
$var wire 1 . RA0 $end
$var wire 1 / RA1 $end
$var wire 1 0 RA2 $end
$var wire 1 1 RA3 $end
$var wire 1 2 RB0 $end
$var wire 1 3 RB1 $end
$var wire 1 4 RB2 $end
$var wire 1 5 RB3 $end

$scope module i1 $end
$var wire 1 6 gnd $end
$var wire 1 7 vcc $end
$var wire 1 8 unknown $end
$var wire 1 9 devoe $end
$var wire 1 : devclrn $end
$var wire 1 ; devpor $end
$var wire 1 < ww_devoe $end
$var wire 1 = ww_devclrn $end
$var wire 1 > ww_devpor $end
$var wire 1 ? ww_RA0 $end
$var wire 1 @ ww_R1 $end
$var wire 1 A ww_R0 $end
$var wire 1 B ww_D2 $end
$var wire 1 C ww_D1 $end
$var wire 1 D ww_CLK $end
$var wire 1 E ww_D0 $end
$var wire 1 F ww_LOAD_A $end
$var wire 1 G ww_EXECUTE $end
$var wire 1 H ww_LOAD_B $end
$var wire 1 I ww_D3 $end
$var wire 1 J ww_F1 $end
$var wire 1 K ww_F0 $end
$var wire 1 L ww_F2 $end
$var wire 1 M ww_RA1 $end
$var wire 1 N ww_RA2 $end
$var wire 1 O ww_RA3 $end
$var wire 1 P ww_RB0 $end
$var wire 1 Q ww_RB1 $end
$var wire 1 R ww_RB2 $end
$var wire 1 S ww_RB3 $end
$var wire 1 T \CLK~inputclkctrl_INCLK_bus\ [3] $end
$var wire 1 U \CLK~inputclkctrl_INCLK_bus\ [2] $end
$var wire 1 V \CLK~inputclkctrl_INCLK_bus\ [1] $end
$var wire 1 W \CLK~inputclkctrl_INCLK_bus\ [0] $end
$var wire 1 X \RA0~output_o\ $end
$var wire 1 Y \RA1~output_o\ $end
$var wire 1 Z \RA2~output_o\ $end
$var wire 1 [ \RA3~output_o\ $end
$var wire 1 \ \RB0~output_o\ $end
$var wire 1 ] \RB1~output_o\ $end
$var wire 1 ^ \RB2~output_o\ $end
$var wire 1 _ \RB3~output_o\ $end
$var wire 1 ` \CLK~input_o\ $end
$var wire 1 a \CLK~inputclkctrl_outclk\ $end
$var wire 1 b \D0~input_o\ $end
$var wire 1 c \LOAD_A~input_o\ $end
$var wire 1 d \EXECUTE~input_o\ $end
$var wire 1 e \D1~input_o\ $end
$var wire 1 f \D2~input_o\ $end
$var wire 1 g \D3~input_o\ $end
$var wire 1 h \R1~input_o\ $end
$var wire 1 i \F2~input_o\ $end
$var wire 1 j \R0~input_o\ $end
$var wire 1 k \LOAD_B~input_o\ $end
$var wire 1 l \F1~input_o\ $end
$var wire 1 m \F0~input_o\ $end
$var wire 1 n \inst14|22~0_combout\ $end
$var wire 1 o \inst1|37~4_combout\ $end
$var wire 1 p \inst1|37~2_combout\ $end
$var wire 1 q \inst1|37~3_combout\ $end
$var wire 1 r \inst1|41~q\ $end
$var wire 1 s \inst1|36~0_combout\ $end
$var wire 1 t \inst1|40~q\ $end
$var wire 1 u \inst1|35~0_combout\ $end
$var wire 1 v \inst1|39~q\ $end
$var wire 1 w \inst1|34~0_combout\ $end
$var wire 1 x \inst1|38~q\ $end
$var wire 1 y \inst|37~4_combout\ $end
$var wire 1 z \inst|37~2_combout\ $end
$var wire 1 { \inst|37~3_combout\ $end
$var wire 1 | \inst|41~q\ $end
$var wire 1 } \inst|36~0_combout\ $end
$var wire 1 ~ \inst|40~q\ $end
$var wire 1 !! \inst|35~0_combout\ $end
$var wire 1 "! \inst|39~q\ $end
$var wire 1 #! \inst|34~0_combout\ $end
$var wire 1 $! \inst|38~q\ $end
$upscope $end
$upscope $end
$enddefinitions $end
#0
$dumpvars
0!
0"
0#
0$
0%
0&
0'
0(
0)
0*
0+
0,
0-
0.
0/
00
01
02
03
04
05
06
17
x8
19
1:
1;
1<
1=
1>
0?
0@
0A
0B
0C
0D
0E
0F
0G
0H
0I
0J
0K
0L
0M
0N
0O
0P
0Q
0R
0S
0X
0Y
0Z
0[
0\
0]
0^
0_
0`
0a
0b
0c
0d
0e
0f
0g
0h
0i
0j
0k
0l
0m
1n
0o
0p
0q
0r
0s
0t
0u
0v
0w
0x
0y
0z
0{
0|
0}
0~
0!!
0"!
0#!
0$!
1T
1U
1V
0W
$end
#5000
1!
1D
1`
1W
1a
#10000
0!
1#
1"
0D
1C
1E
1b
1e
0`
0W
0a
#15000
1!
1D
1`
1W
1a
#20000
0!
0D
0`
0W
0a
#25000
1!
1D
1`
1W
1a
#30000
0!
1&
1*
0D
1G
1F
1c
1d
0`
0W
1!!
1#!
0a
#35000
1!
1D
1`
1W
1a
1"!
1$!
1z
1X
1Y
1?
1M
1.
1/
#40000
0!
1+
0D
1H
1k
0`
0W
1u
1w
0a
#45000
1!
1D
1`
1W
1a
1v
1x
0n
1p
1o
1y
1\
1]
1P
1Q
12
13
#50000
0!
0#
0"
0D
0C
0E
0b
0e
0`
0W
0u
0!!
0w
0#!
0a
#55000
1!
1D
1`
1W
1a
0v
0x
0"!
0$!
0z
1n
0p
0o
0y
0X
0Y
0\
0]
0?
0M
0P
0Q
0.
0/
02
03
#60000
0!
0D
0`
0W
0a
#65000
1!
1D
1`
1W
1a
#70000
0!
0+
0&
0*
1%
1$
0D
0H
0G
0F
1I
1B
1f
1g
0c
0d
0k
0`
0W
0a
#75000
1!
1D
1`
1W
1a
#80000
0!
0D
0`
0W
0a
#85000
1!
1D
1`
1W
1a
#90000
0!
1*
0D
1F
1c
0`
0W
0a
#95000
1!
1D
1`
1W
1a
#100000
0!
0D
0`
0W
0a
#105000
1!
1D
1`
1W
1a
#110000
0!
0*
0%
0$
0D
0F
0I
0B
0f
0g
0c
0`
0W
0a
#115000
1!
1D
1`
1W
1a
#120000
0!
0D
0`
0W
0a
#125000
1!
1D
1`
1W
1a
#130000
0!
0D
0`
0W
0a
#135000
1!
1D
1`
1W
1a
#140000
0!
0D
0`
0W
0a
#145000
1!
1D
1`
1W
1a
#150000
0!
1*
0D
1F
1c
0`
0W
0a
#155000
1!
1D
1`
1W
1a
#160000
0!
0D
0`
0W
0a
#165000
1!
1D
1`
1W
1a
#170000
0!
0*
0D
0F
0c
0`
0W
0a
#175000
1!
1D
1`
1W
1a
#180000
0!
0D
0`
0W
0a
#185000
1!
1D
1`
1W
1a
#190000
0!
1#
1"
0D
1C
1E
1b
1e
0`
0W
0a
#195000
1!
1D
1`
1W
1a
#200000
0!
0D
0`
0W
0a
#205000
1!
1D
1`
1W
1a
#210000
0!
1+
0D
1H
1k
0`
0W
1w
0a
#215000
1!
1D
1`
1W
1a
#220000
0!
0D
0`
0W
0a
#225000
1!
1D
1`
1W
1a
#230000
0!
0+
0#
0"
0D
0H
0C
0E
0b
0e
0k
0`
0W
0w
0a
#235000
1!
1D
1`
1W
1a
#240000
0!
0D
0`
0W
0a
#245000
1!
1D
1`
1W
1a
#250000
0!
1%
1$
0D
1I
1B
1f
1g
0`
0W
0a
#255000
1!
1D
1`
1W
1a
#260000
0!
0D
0`
0W
0a
#265000
1!
1D
1`
1W
1a
#270000
0!
1+
0D
1H
1k
0`
0W
0a
#275000
1!
1D
1`
1W
1a
#280000
0!
0D
0`
0W
0a
#285000
1!
1D
1`
1W
1a
#290000
0!
0+
0%
0$
0D
0H
0I
0B
0f
0g
0k
0`
0W
0a
#295000
1!
1D
1`
1W
1a
#300000
0!
0D
0`
0W
0a
#305000
1!
1D
1`
1W
1a
#310000
0!
0D
0`
0W
0a
#315000
1!
1D
1`
1W
1a
#320000
0!
0D
0`
0W
0a
#325000
1!
1D
1`
1W
1a
#330000
0!
1+
0D
1H
1k
0`
0W
0a
#335000
1!
1D
1`
1W
1a
#340000
0!
0D
0`
0W
0a
#345000
1!
1D
1`
1W
1a
#350000
0!
0+
0D
0H
0k
0`
0W
0a
#355000
1!
1D
1`
1W
1a
#360000
0!
0D
0`
0W
0a
#365000
1!
1D
1`
1W
1a
#370000
0!
0D
0`
0W
0a
#375000
1!
1D
1`
1W
1a
#380000
0!
0D
0`
0W
0a
#385000
1!
1D
1`
1W
1a
#390000
0!
0D
0`
0W
0a
#395000
1!
1D
1`
1W
1a
#400000
0!
1%
1$
1#
0D
1I
1B
1C
1e
1f
1g
0`
0W
0a
#405000
1!
1D
1`
1W
1a
#410000
0!
0D
0`
0W
0a
#415000
1!
1D
1`
1W
1a
#420000
0!
1*
0D
1F
1c
0`
0W
0a
#425000
1!
1D
1`
1W
1a
#430000
0!
0D
0`
0W
0a
#435000
1!
1D
1`
1W
1a
#440000
0!
0*
0%
1"
0D
0F
0I
1E
1b
0g
0c
0`
0W
0a
#445000
1!
1D
1`
1W
1a
#450000
0!
0D
0`
0W
0a
#455000
1!
1D
1`
1W
1a
#460000
0!
1+
0D
1H
1k
0`
0W
1w
0a
#465000
1!
1D
1`
1W
1a
#470000
0!
0D
0`
0W
0a
#475000
1!
1D
1`
1W
1a
#480000
0!
0+
0"
0$
0#
0D
0H
0E
0B
0C
0e
0f
0b
0k
0`
0W
0w
0a
#485000
1!
1D
1`
1W
1a
#490000
0!
0D
0`
0W
0a
#495000
1!
1D
1`
1W
1a
#500000
0!
1&
0D
1G
1d
0`
0W
0a
#505000
1!
1D
1`
1W
1a
#510000
0!
0D
0`
0W
0a
#515000
1!
1D
1`
1W
1a
#520000
0!
0D
0`
0W
0a
#525000
1!
1D
1`
1W
1a
#530000
0!
0D
0`
0W
0a
#535000
1!
1D
1`
1W
1a
#540000
0!
0D
0`
0W
0a
#545000
1!
1D
1`
1W
1a
#550000
0!
0D
0`
0W
0a
#555000
1!
1D
1`
1W
1a
#560000
0!
0D
0`
0W
0a
#565000
1!
1D
1`
1W
1a
#570000
0!
0D
0`
0W
0a
#575000
1!
1D
1`
1W
1a
#580000
0!
0D
0`
0W
0a
#585000
1!
1D
1`
1W
1a
#590000
0!
0D
0`
0W
0a
#595000
1!
1D
1`
1W
1a
#600000
0!
0&
1$
1#
1%
1,
0D
0G
1B
1C
1I
1A
1j
1g
1e
1f
0d
0`
0W
0a
#605000
1!
1D
1`
1W
1a
#610000
0!
0D
0`
0W
0a
#615000
1!
1D
1`
1W
1a
#620000
0!
1*
0D
1F
1c
0`
0W
0a
#625000
1!
1D
1`
1W
1a
#630000
0!
0D
0`
0W
0a
#635000
1!
1D
1`
1W
1a
#640000
0!
0*
0%
1"
0D
0F
0I
1E
1b
0g
0c
0`
0W
0a
#645000
1!
1D
1`
1W
1a
#650000
0!
0D
0`
0W
0a
#655000
1!
1D
1`
1W
1a
#660000
0!
1&
1+
0D
1G
1H
1k
1d
0`
0W
1s
1u
1w
0a
#665000
1!
1D
1`
1W
1a
1t
1v
1x
1y
1\
1]
1^
1P
1Q
1R
12
13
14
#670000
0!
0D
0`
0W
0a
#675000
1!
1D
1`
1W
1a
#680000
0!
0&
0+
0"
0$
0#
0D
0G
0H
0E
0B
0C
0e
0f
0b
0k
0d
0`
0W
0s
0a
#685000
1!
1D
1`
1W
1a
#690000
0!
0D
0`
0W
0a
#695000
1!
1D
1`
1W
1a
#700000
0!
1&
0D
1G
1d
0`
0W
0a
#705000
1!
1D
1`
1W
1a
0t
0u
0^
0R
04
#710000
0!
0D
0`
0W
0a
#715000
1!
1D
1`
1W
1a
0v
0w
0]
0Q
03
#720000
0!
0D
0`
0W
0a
#725000
1!
1D
1`
1W
1a
0x
0y
0\
0P
02
#730000
0!
0D
0`
0W
0a
#735000
1!
1D
1`
1W
1a
#740000
0!
0D
0`
0W
0a
#745000
1!
1D
1`
1W
1a
#750000
0!
0D
0`
0W
0a
#755000
1!
1D
1`
1W
1a
#760000
0!
0D
0`
0W
0a
#765000
1!
1D
1`
1W
1a
#770000
0!
0D
0`
0W
0a
#775000
1!
1D
1`
1W
1a
#780000
0!
0D
0`
0W
0a
#785000
1!
1D
1`
1W
1a
#790000
0!
0D
0`
0W
0a
#795000
1!
1D
1`
1W
1a
#800000
0!
0&
1$
1#
1%
0,
1-
0D
0G
1B
1C
1I
0A
1@
1h
0j
1g
1e
1f
0d
0`
0W
0a
#805000
1!
1D
1`
1W
1a
#810000
0!
0D
0`
0W
0a
#815000
1!
1D
1`
1W
1a
#820000
0!
1*
0D
1F
1c
0`
0W
0a
#825000
1!
1D
1`
1W
1a
#830000
0!
0D
0`
0W
0a
#835000
1!
1D
1`
1W
1a
#840000
0!
0*
0%
1"
0D
0F
0I
1E
1b
0g
0c
0`
0W
0a
#845000
1!
1D
1`
1W
1a
#850000
0!
0D
0`
0W
0a
#855000
1!
1D
1`
1W
1a
#860000
0!
1+
0D
1H
1k
0`
0W
1w
0a
#865000
1!
1D
1`
1W
1a
#870000
0!
0D
0`
0W
0a
#875000
1!
1D
1`
1W
1a
#880000
0!
0+
0"
0$
0#
0D
0H
0E
0B
0C
0e
0f
0b
0k
0`
0W
0w
0a
#885000
1!
1D
1`
1W
1a
#890000
0!
0D
0`
0W
0a
#895000
1!
1D
1`
1W
1a
#900000
0!
1&
0D
1G
1d
0`
0W
0a
#905000
1!
1D
1`
1W
1a
#910000
0!
0D
0`
0W
0a
#915000
1!
1D
1`
1W
1a
#920000
0!
0D
0`
0W
0a
#925000
1!
1D
1`
1W
1a
#930000
0!
0D
0`
0W
0a
#935000
1!
1D
1`
1W
1a
#940000
0!
0D
0`
0W
0a
#945000
1!
1D
1`
1W
1a
#950000
0!
0D
0`
0W
0a
#955000
1!
1D
1`
1W
1a
#960000
0!
0D
0`
0W
0a
#965000
1!
1D
1`
1W
1a
#970000
0!
0D
0`
0W
0a
#975000
1!
1D
1`
1W
1a
#980000
0!
0D
0`
0W
0a
#985000
1!
1D
1`
1W
1a
#990000
0!
0D
0`
0W
0a
#995000
1!
1D
1`
1W
1a
#1000000
0!
0&
1$
1#
1%
1,
0D
0G
1B
1C
1I
1A
1j
1g
1e
1f
0d
0`
0W
0a
#1005000
1!
1D
1`
1W
1a
#1010000
0!
0D
0`
0W
0a
#1015000
1!
1D
1`
1W
1a
#1020000
0!
1&
1*
0D
1G
1F
1c
1d
0`
0W
1{
1}
1!!
0a
#1025000
1!
1D
1`
1W
1a
1|
1~
1"!
1Y
1Z
1[
1M
1N
1O
1/
10
11
#1030000
0!
0D
0`
0W
0a
#1035000
1!
1D
1`
1W
1a
#1040000
0!
0&
0*
0%
1"
0D
0G
0F
0I
1E
1b
0g
0c
0d
0`
0W
0{
1#!
0a
#1045000
1!
1D
1`
1W
1a
#1050000
0!
0D
0`
0W
0a
#1055000
1!
1D
1`
1W
1a
#1060000
0!
1+
0D
1H
1k
0`
0W
1w
0a
#1065000
1!
1D
1`
1W
1a
#1070000
0!
0D
0`
0W
0a
#1075000
1!
1D
1`
1W
1a
#1080000
0!
0+
0"
0$
0#
0D
0H
0E
0B
0C
0e
0f
0b
0k
0`
0W
0w
0a
#1085000
1!
1D
1`
1W
1a
#1090000
0!
0D
0`
0W
0a
#1095000
1!
1D
1`
1W
1a
#1100000
0!
1&
0D
1G
1d
0`
0W
0a
#1105000
1!
1D
1`
1W
1a
0|
1$!
1o
0}
1p
1X
0[
1q
1?
0O
1.
01
#1110000
0!
0D
0`
0W
0a
#1115000
1!
1D
1`
1W
1a
1r
0~
0!!
1s
0Z
1_
0N
1S
00
15
#1120000
0!
0D
0`
0W
0a
#1125000
1!
1D
1`
1W
1a
1t
0"!
0#!
1u
0Y
1^
0M
1R
0/
14
#1130000
0!
0D
0`
0W
0a
#1135000
1!
1D
1`
1W
1a
1v
0$!
0o
1w
0p
0X
1]
0q
0?
1Q
0.
13
#1140000
0!
0D
0`
0W
0a
#1145000
1!
1D
1`
1W
1a
0r
1x
1y
0s
1z
1\
0_
1{
1P
0S
12
05
#1150000
0!
0D
0`
0W
0a
#1155000
1!
1D
1`
1W
1a
0t
1|
1}
0u
1[
0^
1O
0R
11
04
#1160000
0!
0D
0`
0W
0a
#1165000
1!
1D
1`
1W
1a
0v
1~
1!!
0w
1Z
0]
1N
0Q
10
03
#1170000
0!
0D
0`
0W
0a
#1175000
1!
1D
1`
1W
1a
0x
1"!
1#!
0y
0z
1Y
0\
0{
1M
0P
1/
02
#1180000
0!
0D
0`
0W
0a
#1185000
1!
1D
1`
1W
1a
0|
1$!
1o
0}
1p
1X
0[
1q
1?
0O
1.
01
#1190000
0!
0D
0`
0W
0a
#1195000
1!
1D
1`
1W
1a
1r
0~
0!!
1s
0Z
1_
0N
1S
00
15
#1200000
0!
0&
1#
1%
0,
1'
0D
0G
1C
1I
0A
1K
1m
0j
1g
1e
0d
0`
0W
0p
0n
1y
0q
0a
1z
1{
#1205000
1!
1D
1`
1W
1a
#1210000
0!
0D
0`
0W
0a
#1215000
1!
1D
1`
1W
1a
#1220000
0!
1*
0D
1F
1c
0`
0W
0#!
0a
#1225000
1!
1D
1`
1W
1a
#1230000
0!
0D
0`
0W
0a
#1235000
1!
1D
1`
1W
1a
#1240000
0!
0*
0%
1"
1$
0D
0F
0I
1E
1B
1f
1b
0g
0c
0`
0W
1#!
0a
#1245000
1!
1D
1`
1W
1a
#1250000
0!
0D
0`
0W
0a
#1255000
1!
1D
1`
1W
1a
#1260000
0!
1+
0D
1H
1k
0`
0W
1w
0a
#1265000
1!
1D
1`
1W
1a
#1270000
0!
0D
0`
0W
0a
#1275000
1!
1D
1`
1W
1a
#1280000
0!
0+
0"
0$
0#
0D
0H
0E
0B
0C
0e
0f
0b
0k
0`
0W
0w
0a
#1285000
1!
1D
1`
1W
1a
#1290000
0!
0D
0`
0W
0a
#1295000
1!
1D
1`
1W
1a
#1300000
0!
1&
0D
1G
1d
0`
0W
0a
#1305000
1!
1D
1`
1W
1a
0r
1t
1|
0"!
0#!
1}
1u
0s
0Y
1[
1^
0_
0M
1O
1R
0S
0/
11
14
05
#1310000
0!
0D
0`
0W
0a
#1315000
1!
1D
1`
1W
1a
0t
1v
1~
0$!
1n
0o
1!!
1w
0u
0y
0X
1Z
1]
0^
0z
0?
1N
1Q
0R
0.
10
13
04
0{
#1320000
0!
0D
0`
0W
0a
#1325000
1!
1D
1`
1W
1a
0v
1x
0|
1"!
1#!
0}
0n
1p
0w
1q
1y
1Y
0[
1\
0]
1z
1M
0O
1P
0Q
1/
01
12
03
1{
#1330000
0!
0D
0`
0W
0a
#1335000
1!
1D
1`
1W
1a
1r
0x
1|
0~
1$!
1o
0!!
1}
0p
1s
0q
1X
0Z
1[
0\
1_
1?
0N
1O
0P
1S
1.
00
11
02
15
#1340000
0!
0D
0`
0W
0a
#1345000
1!
1D
1`
1W
1a
0r
1t
1~
0"!
0#!
1!!
1u
0s
0Y
1Z
1^
0_
0M
1N
1R
0S
0/
10
14
05
#1350000
0!
0D
0`
0W
0a
#1355000
1!
1D
1`
1W
1a
0t
1v
1"!
0$!
1n
0o
1#!
1w
0u
0y
0X
1Y
1]
0^
0z
0?
1M
1Q
0R
0.
1/
13
04
0{
#1360000
0!
0D
0`
0W
0a
#1365000
1!
1D
1`
1W
1a
0v
1x
0|
1$!
1o
0}
0n
1p
0w
1q
1y
1X
0[
1\
0]
1z
1?
0O
1P
0Q
1.
01
12
03
1{
#1370000
0!
0D
0`
0W
0a
#1375000
1!
1D
1`
1W
1a
1r
0x
1|
0~
0!!
1}
0p
1s
0q
0Z
1[
0\
1_
0N
1O
0P
1S
00
11
02
15
#1380000
0!
0D
0`
0W
0a
#1385000
1!
1D
1`
1W
1a
0r
1t
1~
0"!
0#!
1!!
1u
0s
0Y
1Z
1^
0_
0M
1N
1R
0S
0/
10
14
05
#1390000
0!
0D
0`
0W
0a
#1395000
1!
1D
1`
1W
1a
0t
1v
1"!
0$!
1n
0o
1#!
1w
0u
0y
0X
1Y
1]
0^
0z
0?
1M
1Q
0R
0.
1/
13
04
0{
#1400000
0!
0&
1#
1%
0'
1(
0D
0G
1C
1I
0K
1J
1l
0m
1g
1e
0d
0`
0W
0a
#1405000
1!
1D
1`
1W
1a
#1410000
0!
0D
0`
0W
0a
#1415000
1!
1D
1`
1W
1a
#1420000
0!
1*
0D
1F
1c
0`
0W
0#!
0a
#1425000
1!
1D
1`
1W
1a
#1430000
0!
0D
0`
0W
0a
#1435000
1!
1D
1`
1W
1a
#1440000
0!
0*
0%
1"
1$
0D
0F
0I
1E
1B
1f
1b
0g
0c
0`
0W
1#!
0a
#1445000
1!
1D
1`
1W
1a
#1450000
0!
0D
0`
0W
0a
#1455000
1!
1D
1`
1W
1a
#1460000
0!
1+
0D
1H
1k
0`
0W
0a
#1465000
1!
1D
1`
1W
1a
#1470000
0!
0D
0`
0W
0a
#1475000
1!
1D
1`
1W
1a
#1480000
0!
0+
0"
0$
0#
0D
0H
0E
0B
0C
0e
0f
0b
0k
0`
0W
0a
#1485000
1!
1D
1`
1W
1a
#1490000
0!
0D
0`
0W
0a
#1495000
1!
1D
1`
1W
1a
#1500000
0!
1&
0D
1G
1d
0`
0W
0a
#1505000
1!
1D
1`
1W
1a
0v
1x
0|
1$!
1o
0}
1p
0w
1q
1X
0[
1\
0]
1?
0O
1P
0Q
1.
01
12
03
#1510000
0!
0D
0`
0W
0a
#1515000
1!
1D
1`
1W
1a
1r
0x
0~
0!!
0n
0p
1s
0q
1y
0Z
0\
1_
1z
0N
0P
1S
00
02
15
1{
#1520000
0!
0D
0`
0W
0a
#1525000
1!
1D
1`
1W
1a
0r
1t
1|
0"!
0#!
1}
1u
0s
0Y
1[
1^
0_
0M
1O
1R
0S
0/
11
14
05
#1530000
0!
0D
0`
0W
0a
#1535000
1!
1D
1`
1W
1a
0t
1v
1~
0$!
1n
0o
1!!
1w
0u
0y
0X
1Z
1]
0^
0z
0?
1N
1Q
0R
0.
10
13
04
0{
#1540000
0!
0D
0`
0W
0a
#1545000
1!
1D
1`
1W
1a
0v
1x
0|
1"!
1#!
0}
0n
1p
0w
1q
1y
1Y
0[
1\
0]
1z
1M
0O
1P
0Q
1/
01
12
03
1{
#1550000
0!
0D
0`
0W
0a
#1555000
1!
1D
1`
1W
1a
1r
0x
1|
0~
1$!
1o
0!!
1}
0p
1s
0q
1X
0Z
1[
0\
1_
1?
0N
1O
0P
1S
1.
00
11
02
15
#1560000
0!
0D
0`
0W
0a
#1565000
1!
1D
1`
1W
1a
0r
1t
1~
0"!
0#!
1!!
1u
0s
0Y
1Z
1^
0_
0M
1N
1R
0S
0/
10
14
05
#1570000
0!
0D
0`
0W
0a
#1575000
1!
1D
1`
1W
1a
0t
1v
1"!
0$!
1n
0o
1#!
1w
0u
0y
0X
1Y
1]
0^
0z
0?
1M
1Q
0R
0.
1/
13
04
0{
#1580000
0!
0D
0`
0W
0a
#1585000
1!
1D
1`
1W
1a
0v
1x
0|
1$!
1o
0}
1p
0w
1q
1X
0[
1\
0]
1?
0O
1P
0Q
1.
01
12
03
#1590000
0!
0D
0`
0W
0a
#1595000
1!
1D
1`
1W
1a
1r
0x
0~
0!!
0n
0p
1s
0q
1y
0Z
0\
1_
1z
0N
0P
1S
00
02
15
1{
#1600000
0!
0&
1#
1%
1'
0D
0G
1C
1I
1K
1m
1g
1e
0d
0`
0W
0a
#1605000
1!
1D
1`
1W
1a
#1610000
0!
0D
0`
0W
0a
#1615000
1!
1D
1`
1W
1a
#1620000
0!
1*
0D
1F
1c
0`
0W
0#!
0a
#1625000
1!
1D
1`
1W
1a
#1630000
0!
0D
0`
0W
0a
#1635000
1!
1D
1`
1W
1a
#1640000
0!
0*
0%
1"
1$
0D
0F
0I
1E
1B
1f
1b
0g
0c
0`
0W
1#!
0a
#1645000
1!
1D
1`
1W
1a
#1650000
0!
0D
0`
0W
0a
#1655000
1!
1D
1`
1W
1a
#1660000
0!
1+
0D
1H
1k
0`
0W
1w
0a
#1665000
1!
1D
1`
1W
1a
#1670000
0!
0D
0`
0W
0a
#1675000
1!
1D
1`
1W
1a
#1680000
0!
0+
0"
0$
0#
0D
0H
0E
0B
0C
0e
0f
0b
0k
0`
0W
0w
0a
#1685000
1!
1D
1`
1W
1a
#1690000
0!
0D
0`
0W
0a
#1695000
1!
1D
1`
1W
1a
#1700000
0!
1&
0D
1G
1d
0`
0W
0a
#1705000
1!
1D
1`
1W
1a
0r
1t
1|
0"!
0#!
1}
1u
0s
0Y
1[
1^
0_
0M
1O
1R
0S
0/
11
14
05
#1710000
0!
0D
0`
0W
0a
#1715000
1!
1D
1`
1W
1a
0t
1v
1~
0$!
0o
1!!
1w
0u
0X
1Z
1]
0^
0?
1N
1Q
0R
0.
10
13
04
#1720000
0!
0D
0`
0W
0a
#1725000
1!
1D
1`
1W
1a
0v
1x
1"!
1#!
1p
0w
1q
1Y
1\
0]
1M
1P
0Q
1/
12
03
#1730000
0!
0D
0`
0W
0a
#1735000
1!
1D
1`
1W
1a
1r
0x
1$!
1o
0p
1s
0q
1X
0\
1_
1?
0P
1S
1.
02
15
#1740000
0!
0D
0`
0W
0a
#1745000
1!
1D
1`
1W
1a
0r
1t
1u
0s
1^
0_
1R
0S
14
05
#1750000
0!
0D
0`
0W
0a
#1755000
1!
1D
1`
1W
1a
0t
1v
1w
0u
1]
0^
1Q
0R
13
04
#1760000
0!
0D
0`
0W
0a
#1765000
1!
1D
1`
1W
1a
0v
1x
1p
0w
1q
1\
0]
1P
0Q
12
03
#1770000
0!
0D
0`
0W
0a
#1775000
1!
1D
1`
1W
1a
1r
0x
0p
1s
0q
0\
1_
0P
1S
02
15
#1780000
0!
0D
0`
0W
0a
#1785000
1!
1D
1`
1W
1a
0r
1t
1u
0s
1^
0_
1R
0S
14
05
#1790000
0!
0D
0`
0W
0a
#1795000
1!
1D
1`
1W
1a
0t
1v
1w
0u
1]
0^
1Q
0R
13
04
#1800000
0!
0&
1#
1%
0'
0(
1)
0D
0G
1C
1I
0K
0J
1L
1i
0l
0m
1g
1e
0d
0`
0W
1n
0y
0z
1y
0a
1z
0{
1{
#1805000
1!
1D
1`
1W
1a
#1810000
0!
0D
0`
0W
0a
#1815000
1!
1D
1`
1W
1a
#1820000
0!
1*
0D
1F
1c
0`
0W
0#!
0a
#1825000
1!
1D
1`
1W
1a
#1830000
0!
0D
0`
0W
0a
#1835000
1!
1D
1`
1W
1a
#1840000
0!
0*
0%
1"
1$
0D
0F
0I
1E
1B
1f
1b
0g
0c
0`
0W
1#!
0a
#1845000
1!
1D
1`
1W
1a
#1850000
0!
0D
0`
0W
0a
#1855000
1!
1D
1`
1W
1a
#1860000
0!
1+
0D
1H
1k
0`
0W
0a
#1865000
1!
1D
1`
1W
1a
#1870000
0!
0D
0`
0W
0a
#1875000
1!
1D
1`
1W
1a
#1880000
0!
0+
0"
0$
0#
0D
0H
0E
0B
0C
0e
0f
0b
0k
0`
0W
0a
#1885000
1!
1D
1`
1W
1a
#1890000
0!
0D
0`
0W
0a
#1895000
1!
1D
1`
1W
1a
#1900000
0!
1&
0D
1G
1d
0`
0W
0a
#1905000
1!
1D
1`
1W
1a
0v
1x
0n
1p
0w
1q
0y
1\
0]
0z
1P
0Q
12
03
0{
#1910000
0!
0D
0`
0W
0a
#1915000
1!
1D
1`
1W
1a
1r
0x
0|
0}
1n
0p
1s
0q
1y
0[
0\
1_
1z
0O
0P
1S
01
02
15
1{
#1920000
0!
0D
0`
0W
0a
#1925000
1!
1D
1`
1W
1a
0r
1t
1|
0~
0!!
1}
1u
0s
0Z
1[
1^
0_
0N
1O
1R
0S
00
11
14
05
#1930000
0!
0D
0`
0W
0a
#1935000
1!
1D
1`
1W
1a
0t
1v
1~
0"!
0#!
1!!
1w
0u
0Y
1Z
1]
0^
0M
1N
1Q
0R
0/
10
13
04
#1940000
0!
0D
0`
0W
0a
#1945000
1!
1D
1`
1W
1a
0v
1x
1"!
0$!
0o
1#!
1p
0w
1q
0X
1Y
1\
0]
0?
1M
1P
0Q
0.
1/
12
03
#1950000
0!
0D
0`
0W
0a
#1955000
1!
1D
1`
1W
1a
1r
0x
1$!
1o
0p
1s
0q
1X
0\
1_
1?
0P
1S
1.
02
15
#1960000
0!
0D
0`
0W
0a
#1965000
1!
1D
1`
1W
1a
0r
1t
1u
0s
1^
0_
1R
0S
14
05
#1970000
0!
0D
0`
0W
0a
#1975000
1!
1D
1`
1W
1a
0t
1v
1w
0u
1]
0^
1Q
0R
13
04
#1980000
0!
0D
0`
0W
0a
#1985000
1!
1D
1`
1W
1a
0v
1x
0n
1p
0w
1q
0y
1\
0]
0z
1P
0Q
12
03
0{
#1990000
0!
0D
0`
0W
0a
#1995000
1!
1D
1`
1W
1a
1r
0x
0|
0}
1n
0p
1s
0q
1y
0[
0\
1_
1z
0O
0P
1S
01
02
15
1{
#2000000
0!
0&
1#
1%
1'
0D
0G
1C
1I
1K
1m
1g
1e
0d
0`
0W
0n
0y
0a
0z
0{
#2005000
1!
1D
1`
1W
1a
#2010000
0!
0D
0`
0W
0a
#2015000
1!
1D
1`
1W
1a
#2020000
0!
1*
0D
1F
1c
0`
0W
0#!
0a
#2025000
1!
1D
1`
1W
1a
#2030000
0!
0D
0`
0W
0a
#2035000
1!
1D
1`
1W
1a
#2040000
0!
0*
0%
1"
1$
0D
0F
0I
1E
1B
1f
1b
0g
0c
0`
0W
1#!
0a
#2045000
1!
1D
1`
1W
1a
#2050000
0!
0D
0`
0W
0a
#2055000
1!
1D
1`
1W
1a
#2060000
0!
1+
0D
1H
1k
0`
0W
1w
0a
