lab3/simulation/qsim/lab3.msim.vcd
$comment
	File created using the following command:
		vcd file lab3.msim.vcd -direction
$end
$date
	Tue Mar 07 19:28:56 2023
$end
$version
	ModelSim Version 10.5b
$end
$timescale
	1ps
$end

$scope module lab3_vhd_vec_tst $end
$var wire 1 ! C0 $end
$var wire 1 " C1 $end
$var wire 1 # CLK $end
$var wire 1 $ D0 $end
$var wire 1 % D1 $end
$var wire 1 & D2 $end
$var wire 1 ' D3 $end
$var wire 1 ( EXECUTE $end
$var wire 1 ) F0 $end
$var wire 1 * F1 $end
$var wire 1 + F2 $end
$var wire 1 , LOAD_A $end
$var wire 1 - LOAD_B $end
$var wire 1 . Q $end
$var wire 1 / R0 $end
$var wire 1 0 R1 $end
$var wire 1 1 RA0 $end
$var wire 1 2 RA1 $end
$var wire 1 3 RA2 $end
$var wire 1 4 RA3 $end
$var wire 1 5 RB0 $end
$var wire 1 6 RB1 $end
$var wire 1 7 RB2 $end
$var wire 1 8 RB3 $end
$var wire 1 9 S $end

$scope module i1 $end
$var wire 1 : gnd $end
$var wire 1 ; vcc $end
$var wire 1 < unknown $end
$var wire 1 = devoe $end
$var wire 1 > devclrn $end
$var wire 1 ? devpor $end
$var wire 1 @ ww_devoe $end
$var wire 1 A ww_devclrn $end
$var wire 1 B ww_devpor $end
$var wire 1 C ww_RA0 $end
$var wire 1 D ww_R1 $end
$var wire 1 E ww_R0 $end
$var wire 1 F ww_D2 $end
$var wire 1 G ww_D1 $end
$var wire 1 H ww_CLK $end
$var wire 1 I ww_D0 $end
$var wire 1 J ww_LOAD_A $end
$var wire 1 K ww_EXECUTE $end
$var wire 1 L ww_LOAD_B $end
$var wire 1 M ww_D3 $end
$var wire 1 N ww_F1 $end
$var wire 1 O ww_F0 $end
$var wire 1 P ww_F2 $end
$var wire 1 Q ww_RA1 $end
$var wire 1 R ww_RA2 $end
$var wire 1 S ww_RA3 $end
$var wire 1 T ww_RB0 $end
$var wire 1 U ww_RB1 $end
$var wire 1 V ww_RB2 $end
$var wire 1 W ww_RB3 $end
$var wire 1 X ww_S $end
$var wire 1 Y ww_C0 $end
$var wire 1 Z ww_C1 $end
$var wire 1 [ ww_Q $end
$var wire 1 \ \CLK~inputclkctrl_INCLK_bus\ [3] $end
$var wire 1 ] \CLK~inputclkctrl_INCLK_bus\ [2] $end
$var wire 1 ^ \CLK~inputclkctrl_INCLK_bus\ [1] $end
$var wire 1 _ \CLK~inputclkctrl_INCLK_bus\ [0] $end
$var wire 1 ` \RA0~output_o\ $end
$var wire 1 a \RA1~output_o\ $end
$var wire 1 b \RA2~output_o\ $end
$var wire 1 c \RA3~output_o\ $end
$var wire 1 d \RB0~output_o\ $end
$var wire 1 e \RB1~output_o\ $end
$var wire 1 f \RB2~output_o\ $end
$var wire 1 g \RB3~output_o\ $end
$var wire 1 h \S~output_o\ $end
$var wire 1 i \C0~output_o\ $end
$var wire 1 j \C1~output_o\ $end
$var wire 1 k \Q~output_o\ $end
$var wire 1 l \CLK~input_o\ $end
$var wire 1 m \CLK~inputclkctrl_outclk\ $end
$var wire 1 n \EXECUTE~input_o\ $end
$var wire 1 o \inst39|10~0_combout\ $end
$var wire 1 p \inst39|10~q\ $end
$var wire 1 q \inst44~combout\ $end
$var wire 1 r \inst39|9~q\ $end
$var wire 1 s \inst17~combout\ $end
$var wire 1 t \inst26|9~q\ $end
$var wire 1 u \inst18~combout\ $end
$var wire 1 v \inst26|10~q\ $end
$var wire 1 w \D0~input_o\ $end
$var wire 1 x \D3~input_o\ $end
$var wire 1 y \R1~input_o\ $end
$var wire 1 z \inst|37~2_combout\ $end
$var wire 1 { \R0~input_o\ $end
$var wire 1 | \inst|37~3_combout\ $end
$var wire 1 } \D1~input_o\ $end
$var wire 1 ~ \D2~input_o\ $end
$var wire 1 !! \inst1|37~2_combout\ $end
$var wire 1 "! \inst1|37~0_combout\ $end
$var wire 1 #! \F2~input_o\ $end
$var wire 1 $! \F1~input_o\ $end
$var wire 1 %! \F0~input_o\ $end
$var wire 1 &! \inst14|22~1_combout\ $end
$var wire 1 '! \inst14|22~0_combout\ $end
$var wire 1 (! \inst1|37~1_combout\ $end
$var wire 1 )! \inst1|37~3_combout\ $end
$var wire 1 *! \LOAD_B~input_o\ $end
$var wire 1 +! \inst1|34~1_combout\ $end
$var wire 1 ,! \inst1|41~q\ $end
$var wire 1 -! \inst1|36~0_combout\ $end
$var wire 1 .! \inst1|40~q\ $end
$var wire 1 /! \inst1|35~0_combout\ $end
$var wire 1 0! \inst1|39~q\ $end
$var wire 1 1! \inst1|34~0_combout\ $end
$var wire 1 2! \inst1|38~q\ $end
$var wire 1 3! \inst|37~0_combout\ $end
$var wire 1 4! \inst|37~1_combout\ $end
$var wire 1 5! \inst|37~4_combout\ $end
$var wire 1 6! \LOAD_A~input_o\ $end
$var wire 1 7! \inst|34~1_combout\ $end
$var wire 1 8! \inst|41~q\ $end
$var wire 1 9! \inst|36~0_combout\ $end
$var wire 1 :! \inst|40~q\ $end
$var wire 1 ;! \inst|35~0_combout\ $end
$var wire 1 <! \inst|39~q\ $end
$var wire 1 =! \inst|34~0_combout\ $end
$var wire 1 >! \inst|38~q\ $end
$upscope $end
$upscope $end
$enddefinitions $end
#0
$dumpvars
0!
0"
0#
0$
0%
0&
0'
0(
0)
0*
0+
0,
0-
0.
0/
00
01
02
03
04
05
06
07
08
09
0:
1;
x<
1=
1>
1?
1@
1A
1B
0C
0D
0E
0F
0G
0H
0I
0J
0K
0L
0M
0N
0O
0P
0Q
0R
0S
0T
0U
0V
0W
0X
0Y
0Z
0[
0`
0a
0b
0c
0d
0e
0f
0g
0h
0i
0j
0k
0l
0m
0n
0o
0p
0q
0r
0s
0t
0u
0v
0w
0x
0y
0z
0{
0|
0}
0~
0!!
0"!
0#!
0$!
0%!
0&!
1'!
0(!
0)!
0*!
0+!
0,!
0-!
0.!
0/!
00!
01!
02!
03!
04!
05!
06!
07!
08!
09!
0:!
0;!
0<!
0=!
0>!
1\
1]
1^
0_
$end
#5000
1#
1H
1l
1_
1m
#10000
0#
1%
1$
0H
1G
1I
1w
1}
0l
0_
1/!
1;!
11!
1=!
0m
#15000
1#
1H
1l
1_
1m
#20000
0#
0H
0l
0_
0m
#25000
1#
1H
1l
1_
1m
#30000
0#
1,
0H
1J
16!
0l
0_
17!
0m
#35000
1#
1H
1l
1_
1m
1<!
1>!
1`
1a
1C
1Q
11
12
#40000
0#
1-
0H
1L
1*!
0l
0_
1+!
0m
#45000
1#
1H
1l
1_
1m
10!
12!
1&!
0'!
1d
1e
1T
1U
15
16
#50000
0#
0%
0$
0H
0G
0I
0w
0}
0l
0_
0/!
0;!
01!
0=!
0m
#55000
1#
1H
1l
1_
1m
00!
02!
0<!
0>!
0&!
1'!
0`
0a
0d
0e
0C
0Q
0T
0U
01
02
05
06
#60000
0#
0H
0l
0_
0m
#65000
1#
1H
1l
1_
1m
#70000
0#
0-
0,
1'
1&
0H
0L
0J
1M
1F
1~
1x
06!
0*!
0l
0_
0+!
07!
1z
1!!
1-!
19!
1)!
15!
0m
#75000
1#
1H
1l
1_
1m
#80000
0#
0H
0l
0_
0m
#85000
1#
1H
1l
1_
1m
#90000
0#
1,
0H
1J
16!
0l
0_
17!
0m
#95000
1#
1H
1l
1_
1m
18!
1:!
1b
1c
1R
1S
13
14
#100000
0#
0H
0l
0_
0m
#105000
1#
1H
1l
1_
1m
#110000
0#
0,
0'
0&
0H
0J
0M
0F
0~
0x
06!
0l
0_
07!
0z
0!!
0-!
09!
0)!
05!
0m
#115000
1#
1H
1l
1_
1m
#120000
0#
0H
0l
0_
0m
#125000
1#
1H
1l
1_
1m
#130000
0#
0H
0l
0_
0m
#135000
1#
1H
1l
1_
1m
#140000
0#
0H
0l
0_
0m
#145000
1#
1H
1l
1_
1m
#150000
0#
1,
0H
1J
16!
0l
0_
17!
0m
#155000
1#
1H
1l
1_
1m
08!
0:!
0b
0c
0R
0S
03
04
#160000
0#
0H
0l
0_
0m
#165000
1#
1H
1l
1_
1m
#170000
0#
0,
0H
0J
06!
0l
0_
07!
0m
#175000
1#
1H
1l
1_
1m
#180000
0#
0H
0l
0_
0m
#185000
1#
1H
1l
1_
1m
#190000
0#
1%
1$
0H
1G
1I
1w
1}
0l
0_
1/!
1;!
11!
1=!
0m
#195000
1#
1H
1l
1_
1m
#200000
0#
0H
0l
0_
0m
#205000
1#
1H
1l
1_
1m
#210000
0#
1-
0H
1L
1*!
0l
0_
1+!
0m
#215000
1#
1H
1l
1_
1m
10!
12!
1d
1e
1T
1U
15
16
#220000
0#
0H
0l
0_
0m
#225000
1#
1H
1l
1_
1m
#230000
0#
0-
0%
0$
0H
0L
0G
0I
0w
0}
0*!
0l
0_
0+!
0/!
0;!
01!
0=!
0m
#235000
1#
1H
1l
1_
1m
#240000
0#
0H
0l
0_
0m
#245000
1#
1H
1l
1_
1m
#250000
0#
1'
1&
0H
1M
1F
1~
1x
0l
0_
1z
1!!
1-!
19!
1)!
15!
0m
#255000
1#
1H
1l
1_
1m
#260000
0#
0H
0l
0_
0m
#265000
1#
1H
1l
1_
1m
#270000
0#
1-
0H
1L
1*!
0l
0_
1+!
0m
#275000
1#
1H
1l
1_
1m
1,!
1.!
00!
02!
0d
0e
1f
1g
0T
0U
1V
1W
05
06
17
18
#280000
0#
0H
0l
0_
0m
#285000
1#
1H
1l
1_
1m
#290000
0#
0-
0'
0&
0H
0L
0M
0F
0~
0x
0*!
0l
0_
0+!
0z
0!!
0-!
09!
0)!
05!
0m
#295000
1#
1H
1l
1_
1m
#300000
0#
0H
0l
0_
0m
#305000
1#
1H
1l
1_
1m
#310000
0#
0H
0l
0_
0m
#315000
1#
1H
1l
1_
1m
#320000
0#
0H
0l
0_
0m
#325000
1#
1H
1l
1_
1m
#330000
0#
1-
0H
1L
1*!
0l
0_
1+!
0m
#335000
1#
1H
1l
1_
1m
0,!
0.!
0f
0g
0V
0W
07
08
#340000
0#
0H
0l
0_
0m
#345000
1#
1H
1l
1_
1m
#350000
0#
0-
0H
0L
0*!
0l
0_
0+!
0m
#355000
1#
1H
1l
1_
1m
#360000
0#
0H
0l
0_
0m
#365000
1#
1H
1l
1_
1m
#370000
0#
0H
0l
0_
0m
#375000
1#
1H
1l
1_
1m
#380000
0#
0H
0l
0_
0m
#385000
1#
1H
1l
1_
1m
#390000
0#
0H
0l
0_
0m
#395000
1#
1H
1l
1_
1m
#400000
0#
1'
1&
1%
0H
1M
1F
1G
1}
1~
1x
0l
0_
1z
1!!
1-!
19!
1/!
1;!
1)!
15!
0m
#405000
1#
1H
1l
1_
1m
#410000
0#
0H
0l
0_
0m
#415000
1#
1H
1l
1_
1m
#420000
0#
1,
0H
1J
16!
0l
0_
17!
0m
#425000
1#
1H
1l
1_
1m
18!
1:!
1<!
1a
1b
1c
1Q
1R
1S
12
13
14
#430000
0#
0H
0l
0_
0m
#435000
1#
1H
1l
1_
1m
#440000
0#
0,
0'
1$
0H
0J
0M
1I
1w
0x
06!
0l
0_
07!
0z
0!!
11!
1=!
0)!
05!
0m
#445000
1#
1H
1l
1_
1m
#450000
0#
0H
0l
0_
0m
#455000
1#
1H
1l
1_
1m
#460000
0#
1-
0H
1L
1*!
0l
0_
1+!
0m
#465000
1#
1H
1l
1_
1m
1.!
10!
12!
1d
1e
1f
1T
1U
1V
15
16
17
#470000
0#
0H
0l
0_
0m
#475000
1#
1H
1l
1_
1m
#480000
0#
0-
0$
0&
0%
0H
0L
0I
0F
0G
0}
0~
0w
0*!
0l
0_
0+!
01!
0=!
0-!
09!
0/!
0;!
0m
#485000
1#
1H
1l
1_
1m
#490000
0#
0H
0l
0_
0m
#495000
1#
1H
1l
1_
1m
#500000
0#
1(
0H
1K
1n
0l
0_
1q
1s
1u
0m
#505000
1#
1H
1l
1_
1m
1r
1t
1v
1!!
1+!
1/!
11!
17!
19!
1;!
1=!
1o
0q
1)!
1h
1k
1i
1X
1[
1Y
19
1.
1!
#510000
0#
0H
0l
0_
0m
#515000
1#
1H
1l
1_
1m
1p
0r
1,!
0.!
08!
1>!
1z
1&!
0'!
09!
0/!
1-!
1q
15!
1`
0c
0f
1g
0i
1j
1C
0S
0V
1W
0Y
1Z
11
04
07
18
0!
1"
#520000
0#
0H
0l
0_
0m
#525000
1#
1H
1l
1_
1m
1r
1.!
00!
18!
0:!
0;!
19!
01!
1/!
0o
0q
0b
1c
0e
1f
1i
0R
1S
0U
1V
1Y
03
14
06
17
1!
#530000
0#
0H
0l
0_
0m
#535000
1#
1H
1l
1_
1m
0p
0r
10!
02!
1:!
0<!
0=!
1;!
0!!
0&!
1'!
11!
0u
0)!
0a
1b
0d
1e
0i
0j
0Q
1R
0T
1U
0Y
0Z
02
13
05
16
0!
0"
#540000
0#
0H
0l
0_
0m
#545000
1#
1H
1l
1_
1m
0v
0,!
12!
1<!
0>!
0z
0+!
0-!
0/!
01!
07!
09!
0;!
05!
0`
1a
1d
0g
0h
0C
1Q
1T
0W
0X
01
12
15
08
09
#550000
0#
0H
0l
0_
0m
#555000
1#
1H
1l
1_
1m
#560000
0#
0H
0l
0_
0m
#565000
1#
1H
1l
1_
1m
#570000
0#
0H
0l
0_
0m
#575000
1#
1H
1l
1_
1m
#580000
0#
0H
0l
0_
0m
#585000
1#
1H
1l
1_
1m
#590000
0#
0H
0l
0_
0m
#595000
1#
1H
1l
1_
1m
#600000
0#
0(
1&
1%
1'
1/
0H
0K
1F
1G
1M
1E
1{
1x
1}
1~
0n
0l
0_
0s
1-!
19!
1/!
1;!
1z
1!!
1)!
15!
0m
#605000
1#
1H
1l
1_
1m
0t
0k
0[
0.
#610000
0#
0H
0l
0_
0m
#615000
1#
1H
1l
1_
1m
#620000
0#
1,
0H
1J
16!
0l
0_
17!
0m
#625000
1#
1H
1l
1_
1m
#630000
0#
0H
0l
0_
0m
#635000
1#
1H
1l
1_
1m
#640000
0#
0,
0'
1$
0H
0J
0M
1I
1w
0x
06!
0l
0_
07!
0z
0!!
11!
1=!
0)!
05!
0m
#645000
1#
1H
1l
1_
1m
#650000
0#
0H
0l
0_
0m
#655000
1#
1H
1l
1_
1m
#660000
0#
1-
0H
1L
1*!
0l
0_
1+!
0m
#665000
1#
1H
1l
1_
1m
#670000
0#
0H
0l
0_
0m
#675000
1#
1H
1l
1_
1m
#680000
0#
0-
0$
0&
0%
0H
0L
0I
0F
0G
0}
0~
0w
0*!
0l
0_
0+!
01!
0=!
0-!
09!
0/!
0;!
0m
#685000
1#
1H
1l
1_
1m
#690000
0#
0H
0l
0_
0m
#695000
1#
1H
1l
1_
1m
#700000
0#
1(
0H
1K
1n
0l
0_
1q
1s
1u
0m
#705000
1#
1H
1l
1_
1m
1r
1t
1v
1"!
1+!
1/!
11!
17!
19!
1;!
1=!
1o
0q
1h
1k
1i
1X
1[
1Y
19
1.
1!
#710000
0#
0H
0l
0_
0m
#715000
1#
1H
1l
1_
1m
1p
0r
0.!
08!
1>!
1z
1&!
0'!
09!
0/!
1q
1(!
15!
1`
0c
0f
0i
1j
1)!
1C
0S
0V
0Y
1Z
11
04
07
0!
1"
#720000
0#
0H
0l
0_
0m
#725000
1#
1H
1l
1_
1m
1r
1,!
00!
18!
0:!
0;!
19!
01!
1-!
0o
0q
0b
1c
0e
1g
1i
0R
1S
0U
1W
1Y
03
14
06
18
1!
#730000
0#
0H
0l
0_
0m
#735000
1#
1H
1l
1_
1m
0p
0r
1.!
02!
1:!
0<!
0=!
1;!
0&!
1'!
1/!
0u
0(!
0a
1b
0d
1f
0i
0j
0)!
0Q
1R
0T
1V
0Y
0Z
02
13
05
17
0!
0"
#740000
0#
0H
0l
0_
0m
#745000
1#
1H
1l
1_
1m
0v
0,!
10!
1<!
0>!
0z
0"!
0+!
0-!
0/!
07!
09!
0;!
05!
0`
1a
1e
0g
0h
0C
1Q
1U
0W
0X
01
12
16
08
09
#750000
0#
0H
0l
0_
0m
#755000
1#
1H
1l
1_
1m
#760000
0#
0H
0l
0_
0m
#765000
1#
1H
1l
1_
1m
#770000
0#
0H
0l
0_
0m
#775000
1#
1H
1l
1_
1m
#780000
0#
0H
0l
0_
0m
#785000
1#
1H
1l
1_
1m
#790000
0#
0H
0l
0_
0m
#795000
1#
1H
1l
1_
1m
#800000
0#
0(
1&
1%
1'
0/
10
0H
0K
1F
1G
1M
0E
1D
1y
0{
1x
1}
1~
0n
0l
0_
0s
1-!
19!
1/!
1;!
1!!
1z
15!
1)!
0m
#805000
1#
1H
1l
1_
1m
0t
0k
0[
0.
#810000
0#
0H
0l
0_
0m
#815000
1#
1H
1l
1_
1m
#820000
0#
1,
0H
1J
16!
0l
0_
17!
0m
#825000
1#
1H
1l
1_
1m
#830000
0#
0H
0l
0_
0m
#835000
1#
1H
1l
1_
1m
#840000
0#
0,
0'
1$
0H
0J
0M
1I
1w
0x
06!
0l
0_
07!
0z
0!!
11!
1=!
0)!
05!
0m
#845000
1#
1H
1l
1_
1m
#850000
0#
0H
0l
0_
0m
#855000
1#
1H
1l
1_
1m
#860000
0#
1-
0H
1L
1*!
0l
0_
1+!
0m
#865000
1#
1H
1l
1_
1m
12!
1d
1T
15
#870000
0#
0H
0l
0_
0m
#875000
1#
1H
1l
1_
1m
#880000
0#
0-
0$
0&
0%
0H
0L
0I
0F
0G
0}
0~
0w
0*!
0l
0_
0+!
01!
0=!
0-!
09!
0/!
0;!
0m
#885000
1#
1H
1l
1_
1m
#890000
0#
0H
0l
0_
0m
#895000
1#
1H
1l
1_
1m
#900000
0#
1(
0H
1K
1n
0l
0_
1q
1s
1u
0m
#905000
1#
1H
1l
1_
1m
1r
1t
1v
1!!
1+!
1/!
11!
13!
17!
19!
1;!
1=!
1o
0q
1)!
1h
1k
1i
1X
1[
1Y
19
1.
1!
#910000
0#
0H
0l
0_
0m
#915000
1#
1H
1l
1_
1m
1p
0r
1,!
0.!
08!
1>!
1&!
0'!
09!
0/!
1-!
1q
14!
1`
0c
0f
1g
0i
1j
15!
1C
0S
0V
1W
0Y
1Z
11
04
07
18
0!
1"
#920000
0#
0H
0l
0_
0m
#925000
1#
1H
1l
1_
1m
1r
1.!
00!
18!
0:!
0;!
19!
01!
1/!
0o
0q
0b
1c
0e
1f
1i
0R
1S
0U
1V
1Y
03
14
06
17
1!
#930000
0#
0H
0l
0_
0m
#935000
1#
1H
1l
1_
1m
0p
0r
10!
02!
1:!
0<!
0=!
1;!
0!!
0&!
1'!
11!
0u
04!
0)!
0a
1b
0d
1e
0i
0j
05!
0Q
1R
0T
1U
0Y
0Z
02
13
05
16
0!
0"
#940000
0#
0H
0l
0_
0m
#945000
1#
1H
1l
1_
1m
0v
0,!
12!
08!
1<!
0>!
0+!
0-!
0/!
01!
03!
07!
09!
0;!
0`
1a
0c
1d
0g
0h
0C
1Q
0S
1T
0W
0X
01
12
04
15
08
09
#950000
0#
0H
0l
0_
0m
#955000
1#
1H
1l
1_
1m
#960000
0#
0H
0l
0_
0m
#965000
1#
1H
1l
1_
1m
#970000
0#
0H
0l
0_
0m
#975000
1#
1H
1l
1_
1m
#980000
0#
0H
0l
0_
0m
#985000
1#
1H
1l
1_
1m
#990000
0#
0H
0l
0_
0m
#995000
1#
1H
1l
1_
1m
#1000000
0#
0(
1&
1%
1'
1/
0H
0K
1F
1G
1M
1E
1{
1x
1}
1~
0n
0l
0_
0s
1-!
19!
1/!
1;!
1z
1!!
1)!
15!
0m
#1005000
1#
1H
1l
1_
1m
0t
0k
0[
0.
#1010000
0#
0H
0l
0_
0m
#1015000
1#
1H
1l
1_
1m
#1020000
0#
1,
0H
1J
16!
0l
0_
17!
0m
#1025000
1#
1H
1l
1_
1m
18!
1c
1S
14
#1030000
0#
0H
0l
0_
0m
#1035000
1#
1H
1l
1_
1m
#1040000
0#
0,
0'
1$
0H
0J
0M
1I
1w
0x
06!
0l
0_
07!
0z
0!!
11!
1=!
0)!
05!
0m
#1045000
1#
1H
1l
1_
1m
#1050000
0#
0H
0l
0_
0m
#1055000
1#
1H
1l
1_
1m
#1060000
0#
1-
0H
1L
1*!
0l
0_
1+!
0m
#1065000
1#
1H
1l
1_
1m
#1070000
0#
0H
0l
0_
0m
#1075000
1#
1H
1l
1_
1m
#1080000
0#
0-
0$
0&
0%
0H
0L
0I
0F
0G
0}
0~
0w
0*!
0l
0_
0+!
01!
0=!
0-!
09!
0/!
0;!
0m
#1085000
1#
1H
1l
1_
1m
#1090000
0#
0H
0l
0_
0m
#1095000
1#
1H
1l
1_
1m
#1100000
0#
1(
0H
1K
1n
0l
0_
1q
1s
1u
0m
#1105000
1#
1H
1l
1_
1m
1r
1t
1v
1|
1+!
1/!
11!
17!
19!
1;!
1=!
1o
0q
15!
1h
1k
1i
1X
1[
1Y
19
1.
1!
#1110000
0#
0H
0l
0_
0m
#1115000
1#
1H
1l
1_
1m
1p
0r
0.!
1>!
1&!
0'!
1)!
0/!
1q
1`
0f
0i
1j
1C
0V
0Y
1Z
11
07
0!
1"
#1120000
0#
0H
0l
0_
0m
#1125000
1#
1H
1l
1_
1m
1r
1,!
00!
01!
1-!
0o
0q
0e
1g
1i
0U
1W
1Y
06
18
1!
#1130000
0#
0H
0l
0_
0m
#1135000
1#
1H
1l
1_
1m
0p
0r
1.!
02!
0&!
1'!
05!
1/!
0u
0d
1f
0i
0j
0T
1V
0Y
0Z
05
17
0!
0"
#1140000
0#
0H
0l
0_
0m
#1145000
1#
1H
1l
1_
1m
0v
10!
08!
0|
0+!
0-!
0/!
07!
09!
0;!
0=!
0)!
0c
1e
0h
0S
1U
0X
04
16
09
#1150000
0#
0H
0l
0_
0m
#1155000
1#
1H
1l
1_
1m
#1160000
0#
0H
0l
0_
0m
#1165000
1#
1H
1l
1_
1m
#1170000
0#
0H
0l
0_
0m
#1175000
1#
1H
1l
1_
1m
#1180000
0#
0H
0l
0_
0m
#1185000
1#
1H
1l
1_
1m
#1190000
0#
0H
0l
0_
0m
#1195000
1#
1H
1l
1_
1m
#1200000
0#
0(
1%
1'
0/
1)
0H
0K
1G
1M
0E
1O
1%!
0{
1x
1}
0n
0l
0_
0s
1/!
1;!
1z
1!!
1&!
0'!
1)!
15!
0m
#1205000
1#
1H
1l
1_
1m
0t
0k
0[
0.
#1210000
0#
0H
0l
0_
0m
#1215000
1#
1H
1l
1_
1m
#1220000
0#
1,
0H
1J
16!
0l
0_
17!
0m
#1225000
1#
1H
1l
1_
1m
18!
0:!
0>!
0&!
1'!
0`
0b
1c
0C
0R
1S
01
03
14
#1230000
0#
0H
0l
0_
0m
#1235000
1#
1H
1l
1_
1m
#1240000
0#
0,
0'
1$
1&
0H
0J
0M
1I
1F
1~
1w
0x
06!
0l
0_
07!
0z
0!!
11!
1=!
1-!
19!
0)!
05!
0m
#1245000
1#
1H
1l
1_
1m
#1250000
0#
0H
0l
0_
0m
#1255000
1#
1H
1l
1_
1m
#1260000
0#
1-
0H
1L
1*!
0l
0_
1+!
0m
#1265000
1#
1H
1l
1_
1m
0,!
12!
1&!
0'!
1d
0g
1T
0W
15
08
#1270000
0#
0H
0l
0_
0m
#1275000
1#
1H
1l
1_
1m
#1280000
0#
0-
0$
0&
0%
0H
0L
0I
0F
0G
0}
0~
0w
0*!
0l
0_
0+!
01!
0=!
0-!
09!
0/!
0;!
0m
#1285000
1#
1H
1l
1_
1m
#1290000
0#
0H
0l
0_
0m
#1295000
1#
1H
1l
1_
1m
#1300000
0#
1(
0H
1K
1n
0l
0_
1q
1s
1u
0m
#1305000
1#
1H
1l
1_
1m
1r
1t
1v
1!!
1+!
1/!
11!
13!
17!
19!
1=!
1o
0q
14!
1)!
1h
1k
1i
15!
1X
1[
1Y
19
1.
1!
#1310000
0#
0H
0l
0_
0m
#1315000
1#
1H
1l
1_
1m
1p
0r
1,!
0.!
1:!
0<!
1>!
0=!
1;!
0/!
1-!
1q
1`
0a
1b
0f
1g
0i
1j
1C
0Q
1R
0V
1W
0Y
1Z
11
02
13
07
18
0!
1"
#1320000
0#
0H
0l
0_
0m
#1325000
1#
1H
1l
1_
1m
1r
1.!
00!
1<!
0>!
1=!
01!
1/!
0o
0q
0`
1a
0e
1f
1i
0C
1Q
0U
1V
1Y
01
12
06
17
1!
#1330000
0#
0H
0l
0_
0m
#1335000
1#
1H
1l
1_
1m
0p
0r
10!
02!
1>!
0!!
11!
0u
0)!
1`
0d
1e
0i
0j
1C
0T
1U
0Y
0Z
11
05
16
0!
0"
#1340000
0#
0H
0l
0_
0m
#1345000
1#
1H
1l
1_
1m
0v
0,!
12!
0+!
0-!
0/!
01!
03!
07!
09!
0;!
0=!
04!
1d
0g
0h
05!
1T
0W
0X
15
08
09
#1350000
0#
0H
0l
0_
0m
#1355000
1#
1H
1l
1_
1m
#1360000
0#
0H
0l
0_
0m
#1365000
1#
1H
1l
1_
1m
#1370000
0#
0H
0l
0_
0m
#1375000
1#
1H
1l
1_
1m
#1380000
0#
0H
0l
0_
0m
#1385000
1#
1H
1l
1_
1m
#1390000
0#
0H
0l
0_
0m
#1395000
1#
1H
1l
1_
1m
#1400000
0#
0(
1%
1'
0)
1*
0H
0K
1G
1M
0O
1N
1$!
0%!
1x
1}
0n
0l
0_
0s
1/!
1;!
1z
1!!
0&!
1'!
1)!
15!
0m
#1405000
1#
1H
1l
1_
1m
0t
0k
0[
0.
#1410000
0#
0H
0l
0_
0m
#1415000
1#
1H
1l
1_
1m
#1420000
0#
1,
0H
1J
16!
0l
0_
17!
0m
#1425000
1#
1H
1l
1_
1m
0:!
0>!
1&!
0'!
0`
0b
0C
0R
01
03
#1430000
0#
0H
0l
0_
0m
#1435000
1#
1H
1l
1_
1m
#1440000
0#
0,
0'
1$
1&
0H
0J
0M
1I
1F
1~
1w
0x
06!
0l
0_
07!
0z
0!!
11!
1=!
1-!
19!
0)!
05!
0m
#1445000
1#
1H
1l
1_
1m
#1450000
0#
0H
0l
0_
0m
#1455000
1#
1H
1l
1_
1m
#1460000
0#
1-
0H
1L
1*!
0l
0_
1+!
0m
#1465000
1#
1H
1l
1_
1m
#1470000
0#
0H
0l
0_
0m
#1475000
1#
1H
1l
1_
1m
#1480000
0#
0-
0$
0&
0%
0H
0L
0I
0F
0G
0}
0~
0w
0*!
0l
0_
0+!
01!
0=!
0-!
09!
0/!
0;!
0m
#1485000
1#
1H
1l
1_
1m
#1490000
0#
0H
0l
0_
0m
#1495000
1#
1H
1l
1_
1m
#1500000
0#
1(
0H
1K
1n
0l
0_
1q
1s
1u
0m
#1505000
1#
1H
1l
1_
1m
1r
1t
1v
1!!
1+!
1/!
11!
13!
17!
19!
1=!
1o
0q
14!
1)!
1h
1k
1i
15!
1X
1[
1Y
19
1.
1!
#1510000
0#
0H
0l
0_
0m
#1515000
1#
1H
1l
1_
1m
1p
0r
1,!
0.!
1:!
0<!
1>!
0&!
1'!
0=!
1;!
0/!
1-!
1q
04!
1`
0a
1b
0f
1g
0i
1j
05!
1C
0Q
1R
0V
1W
0Y
1Z
11
02
13
07
18
0!
1"
#1520000
0#
0H
0l
0_
0m
#1525000
1#
1H
1l
1_
1m
1r
1.!
00!
08!
1<!
0>!
1&!
0'!
1=!
09!
01!
1/!
0o
0q
14!
0`
1a
0c
0e
1f
1i
15!
0C
1Q
0S
0U
1V
1Y
01
12
04
06
17
1!
#1530000
0#
0H
0l
0_
0m
#1535000
1#
1H
1l
1_
1m
0p
0r
10!
02!
18!
0:!
1>!
0;!
19!
0!!
11!
0u
0)!
1`
0b
1c
0d
1e
0i
0j
1C
0R
1S
0T
1U
0Y
0Z
11
03
14
05
16
0!
0"
#1540000
0#
0H
0l
0_
0m
#1545000
1#
1H
1l
1_
1m
0v
0,!
12!
1:!
0<!
0&!
1'!
0+!
0-!
0/!
01!
03!
07!
09!
0=!
04!
0a
1b
1d
0g
0h
05!
0Q
1R
1T
0W
0X
02
13
15
08
09
#1550000
0#
0H
0l
0_
0m
#1555000
1#
1H
1l
1_
1m
#1560000
0#
0H
0l
0_
0m
#1565000
1#
1H
1l
1_
1m
#1570000
0#
0H
0l
0_
0m
#1575000
1#
1H
1l
1_
1m
#1580000
0#
0H
0l
0_
0m
#1585000
1#
1H
1l
1_
1m
#1590000
0#
0H
0l
0_
0m
#1595000
1#
1H
1l
1_
1m
#1600000
0#
0(
1%
1'
1)
0H
0K
1G
1M
1O
1%!
1x
1}
0n
0l
0_
0s
1/!
1;!
1z
1!!
1&!
0'!
1)!
15!
0m
#1605000
1#
1H
1l
1_
1m
0t
0k
0[
0.
#1610000
0#
0H
0l
0_
0m
#1615000
1#
1H
1l
1_
1m
#1620000
0#
1,
0H
1J
16!
0l
0_
17!
0m
#1625000
1#
1H
1l
1_
1m
0:!
1<!
0>!
0`
1a
0b
0C
1Q
0R
01
12
03
#1630000
0#
0H
0l
0_
0m
#1635000
1#
1H
1l
1_
1m
#1640000
0#
0,
0'
1$
1&
0H
0J
0M
1I
1F
1~
1w
0x
06!
0l
0_
07!
0z
0!!
11!
1=!
1-!
19!
0)!
05!
0m
#1645000
1#
1H
1l
1_
1m
#1650000
0#
0H
0l
0_
0m
#1655000
1#
1H
1l
1_
1m
#1660000
0#
1-
0H
1L
1*!
0l
0_
1+!
0m
#1665000
1#
1H
1l
1_
1m
#1670000
0#
0H
0l
0_
0m
#1675000
1#
1H
1l
1_
1m
#1680000
0#
0-
0$
0&
0%
0H
0L
0I
0F
0G
0}
0~
0w
0*!
0l
0_
0+!
01!
0=!
0-!
09!
0/!
0;!
0m
#1685000
1#
1H
1l
1_
1m
#1690000
0#
0H
0l
0_
0m
#1695000
1#
1H
1l
1_
1m
#1700000
0#
1(
0H
1K
1n
0l
0_
1q
1s
1u
0m
